<?xml version="1.0" encoding="UTF-8"?>
<svg width="10px" height="13px" viewBox="0 0 10 13" version="1.1" xmlns="http://www.w3.org/2000/svg" xmlns:xlink="http://www.w3.org/1999/xlink">
    <!-- Generator: Sketch 48.1 (47250) - http://www.bohemiancoding.com/sketch -->
    <title>icon_user</title>
    <desc>Created with Sketch.</desc>
    <defs>
        <circle id="path-1" cx="4.76666667" cy="3.03333333" r="3.03333333"></circle>
        <path d="M4.76666667,13 C7.39922397,13 9.53333333,12.9835992 9.53333333,10.2142857 C9.53333333,7.44497218 7.39922397,5.2 4.76666667,5.2 C2.13410936,5.2 0,7.44497218 0,10.2142857 C0,12.9835992 2.13410936,13 4.76666667,13 Z" id="path-2"></path>
    </defs>
    <g id="01---Desktop-1256+-(1256+++)---main" stroke="none" stroke-width="1" fill="none" fill-rule="evenodd" transform="translate(-418.000000, -72.000000)">
        <g id="Group-13" transform="translate(226.000000, 26.000000)">
            <g id="Group-7" transform="translate(0.000000, 42.000000)">
                <g id="Group-24-Copy" transform="translate(192.000000, 0.000000)">
                    <g id="Stacked-Group">
                        <g id="Group">
                            <g id="icon_user" transform="translate(0.000000, 4.000000)">
                                <g id="Oval-3">
                                    <use fill="#468189" fill-rule="evenodd" xlink:href="#path-1"></use>
                                    <circle stroke="#468189" stroke-width="2" cx="4.76666667" cy="3.03333333" r="2.03333333"></circle>
                                </g>
                                <g id="Oval-3-Copy">
                                    <use fill="#468189" fill-rule="evenodd" xlink:href="#path-2"></use>
                                    <path stroke="#468189" stroke-width="2" d="M4.76666667,12 C7.94191829,12 8.53333333,11.7598512 8.53333333,10.2142857 C8.53333333,7.98624783 6.83529527,6.2 4.76666667,6.2 C2.69803806,6.2 1,7.98624783 1,10.2142857 C1,11.7598512 1.59141505,12 4.76666667,12 Z"></path>
                                </g>
                            </g>
                        </g>
                    </g>
                </g>
            </g>
        </g>
    </g>
</svg>