<?xml version="1.0" encoding="UTF-8"?>
<svg width="17px" height="14px" viewBox="0 0 17 14" version="1.1" xmlns="http://www.w3.org/2000/svg" xmlns:xlink="http://www.w3.org/1999/xlink">
    <!-- Generator: Sketch 46.2 (44496) - http://www.bohemiancoding.com/sketch -->
    <title>icon_tour_region</title>
    <desc>Created with Sketch.</desc>
    <defs></defs>
    <g id="Symbols" stroke="none" stroke-width="1" fill="none" fill-rule="evenodd">
        <g id="icon_tour_region" fill="#468189">
            <g transform="translate(3.000000, 0.000000)" id="Rectangle-3">
                <polygon points="0 0 11 0 11 8.63636364 5.5 13 0 8.63636364"></polygon>
            </g>
        </g>
    </g>
</svg>