<?xml version="1.0" encoding="UTF-8"?>
<svg width="17px" height="14px" viewBox="0 0 17 14" version="1.1" xmlns="http://www.w3.org/2000/svg" xmlns:xlink="http://www.w3.org/1999/xlink">
    <!-- Generator: Sketch 46.2 (44496) - http://www.bohemiancoding.com/sketch -->
    <title>icon_tour_city</title>
    <desc>Created with Sketch.</desc>
    <defs></defs>
    <g id="Symbols" stroke="none" stroke-width="1" fill="none" fill-rule="evenodd">
        <g id="icon_tour_city" fill="#468189">
            <g transform="translate(1.000000, 1.000000)">
                <rect id="Rectangle-2" x="5" y="0" width="7" height="11"></rect>
                <rect id="Rectangle-2-Copy" x="11" y="5" width="4" height="6"></rect>
                <rect id="Rectangle-2-Copy-3" x="2" y="5" width="2" height="6"></rect>
                <rect id="Rectangle-2-Copy-2" x="0" y="8" width="6" height="3"></rect>
            </g>
        </g>
    </g>
</svg>