<?xml version="1.0" encoding="UTF-8"?>
<svg width="12px" height="12px" viewBox="0 0 12 12" version="1.1" xmlns="http://www.w3.org/2000/svg" xmlns:xlink="http://www.w3.org/1999/xlink">
    <!-- Generator: Sketch 48.1 (47250) - http://www.bohemiancoding.com/sketch -->
    <title>icon_list_view</title>
    <desc>Created with Sketch.</desc>
    <defs></defs>
    <g id="view_toggle1" stroke="none" stroke-width="1" fill="none" fill-rule="evenodd" transform="translate(-61.000000, -8.000000)">
        <g id="view_toggle" fill="#468189">
            <g id="icon_list_view" transform="translate(61.000000, 8.000000)">
                <rect id="Rectangle-8" x="3" y="0" width="9" height="2"></rect>
                <rect id="Rectangle-8-Copy-3" x="0" y="0" width="2" height="2"></rect>
                <rect id="Rectangle-8-Copy" x="3" y="5" width="9" height="2"></rect>
                <rect id="Rectangle-8-Copy-4" x="0" y="5" width="2" height="2"></rect>
                <rect id="Rectangle-8-Copy-2" x="3" y="10" width="9" height="2"></rect>
                <rect id="Rectangle-8-Copy-5" x="0" y="10" width="2" height="2"></rect>
            </g>
        </g>
    </g>
</svg>