<?xml version="1.0" encoding="UTF-8"?>
<svg width="11px" height="11px" viewBox="0 0 11 11" version="1.1" xmlns="http://www.w3.org/2000/svg" xmlns:xlink="http://www.w3.org/1999/xlink">
    <!-- Generator: Sketch 48.1 (47250) - http://www.bohemiancoding.com/sketch -->
    <title>icon_rate</title>
    <desc>Created with Sketch.</desc>
    <defs></defs>
    <g id="01---Desktop-1256+-(1256+++)---main" stroke="none" stroke-width="1" fill="none" fill-rule="evenodd" transform="translate(-602.000000, -73.000000)">
        <g id="Group-13" transform="translate(226.000000, 26.000000)" fill="#468189">
            <g id="Group-7" transform="translate(0.000000, 42.000000)">
                <g id="Group-24-Copy-2" transform="translate(376.000000, 0.000000)">
                    <g id="Stacked-Group">
                        <g id="Group">
                            <g id="icon_rate" transform="translate(0.000000, 5.000000)">
                                <g>
                                    <rect id="Rectangle-6" x="0" y="4" width="3" height="7"></rect>
                                    <rect id="Rectangle-6-Copy" x="4" y="0" width="3" height="11"></rect>
                                    <rect id="Rectangle-6-Copy-2" x="8" y="5" width="3" height="6"></rect>
                                </g>
                            </g>
                        </g>
                    </g>
                </g>
            </g>
        </g>
    </g>
</svg>