<?xml version="1.0" encoding="UTF-8"?>
<svg width="17px" height="10px" viewBox="0 0 17 10" version="1.1" xmlns="http://www.w3.org/2000/svg" xmlns:xlink="http://www.w3.org/1999/xlink">
    <!-- Generator: Sketch 46.2 (44496) - http://www.bohemiancoding.com/sketch -->
    <title>icon_view</title>
    <desc>Created with Sketch.</desc>
    <defs></defs>
    <g id="Symbols" stroke="none" stroke-width="1" fill="none" fill-rule="evenodd">
        <g id="icon_view" fill="#468189" fill-rule="nonzero">
            <path d="M8.34215017,0.0247440273 C5.15443686,0.0247440273 2.26365188,1.76877133 0.130546075,4.60153584 C-0.0435153584,4.83361775 -0.0435153584,5.15784983 0.130546075,5.38993174 C2.26365188,8.22610922 5.15443686,9.97013652 8.34215017,9.97013652 C11.5298635,9.97013652 14.4206485,8.22610922 16.5537543,5.39334471 C16.7278157,5.1612628 16.7278157,4.83703072 16.5537543,4.60494881 C14.4206485,1.76877133 11.5298635,0.0247440273 8.34215017,0.0247440273 Z M8.57081911,8.49914676 C6.45477816,8.63225256 4.70733788,6.88822526 4.84044369,4.76877133 C4.9496587,3.02133106 6.36604096,1.60494881 8.11348123,1.49573379 C10.2295222,1.36262799 11.9769625,3.10665529 11.8438567,5.22610922 C11.7312287,6.97013652 10.3148464,8.38651877 8.57081911,8.49914676 Z M8.46501706,6.88139932 C7.32508532,6.95307167 6.3831058,6.01450512 6.45819113,4.87457338 C6.5162116,3.93259386 7.28071672,3.17150171 8.22269625,3.11006826 C9.36262799,3.0383959 10.3046075,3.97696246 10.2295222,5.1168942 C10.1680887,6.06228669 9.40358362,6.82337884 8.46501706,6.88139932 Z"></path>
        </g>
    </g>
</svg>