<?xml version="1.0" encoding="UTF-8"?>
<svg width="12px" height="15px" viewBox="0 0 12 15" version="1.1" xmlns="http://www.w3.org/2000/svg" xmlns:xlink="http://www.w3.org/1999/xlink">
    <!-- Generator: Sketch 46.2 (44496) - http://www.bohemiancoding.com/sketch -->
    <title>icon_time</title>
    <desc>Created with Sketch.</desc>
    <defs></defs>
    <g id="Symbols" stroke="none" stroke-width="1" fill="none" fill-rule="evenodd">
        <g id="icon_time" fill="#468189">
            <g>
                <path d="M9.87442052,4.4184727 C8.82907934,3.53357843 7.47685163,3 6,3 C2.6862915,3 0,5.6862915 0,9 C0,12.3137085 2.6862915,15 6,15 C9.3137085,15 12,12.3137085 12,9 C12,7.52314837 11.4664216,6.17092066 10.5815273,5.12557948 L7.72309045,7.98401633 C7.8990353,8.28177295 8,8.62909569 8,9 C8,10.1045695 7.1045695,11 6,11 C4.8954305,11 4,10.1045695 4,9 C4,7.8954305 4.8954305,7 6,7 C6.37090431,7 6.71822705,7.1009647 7.01598367,7.27690955 L9.87442052,4.4184727 Z" id="Combined-Shape"></path>
                <rect id="Rectangle-6" x="3" y="0" width="6" height="2"></rect>
            </g>
        </g>
    </g>
</svg>