<?xml version="1.0" encoding="UTF-8"?>
<svg width="55px" height="55px" viewBox="0 0 55 55" version="1.1" xmlns="http://www.w3.org/2000/svg" xmlns:xlink="http://www.w3.org/1999/xlink">
    <!-- Generator: Sketch 46.2 (44496) - http://www.bohemiancoding.com/sketch -->
    <title>piece_crown</title>
    <desc>Created with Sketch.</desc>
    <defs></defs>
    <g id="Symbols" stroke="none" stroke-width="1" fill="none" fill-rule="evenodd">
        <g id="piece_crown" fill="#27190D">
            <path d="M19.8151177,15.5730677 C21.0790497,15.5730677 22.1073862,14.5473039 22.1073862,13.2865339 C22.1073862,12.0257638 21.0790497,11 19.8151177,11 C18.5511857,11 17.5228493,12.0257638 17.5228493,13.2865339 C17.5228493,14.5473039 18.5511857,15.5730677 19.8151177,15.5730677 Z M36.1651066,15.5730677 C37.4290386,15.5730677 38.457375,14.5473039 38.457375,13.2865339 C38.457375,12.0257638 37.4290386,11 36.1651066,11 C34.9011746,11 33.8728381,12.0257638 33.8728381,13.2865339 C33.8728381,14.5473039 34.9011746,15.5730677 36.1651066,15.5730677 Z M47.6879559,13.9314417 C46.4129682,13.9314417 45.3759117,14.9659037 45.3759117,16.2377018 C45.3759117,17.5094999 46.4129682,18.5439619 47.6879559,18.5439619 C48.9629436,18.5439619 50,17.5094999 50,16.2377018 C50,14.9659037 48.9627879,13.9314417 47.6879559,13.9314417 Z M10.5843812,16.0823772 C10.5843812,14.8216072 9.55604472,13.7958433 8.29211272,13.7958433 C7.02818073,13.7958433 6,14.8216072 6,16.0823772 C6,17.3431472 7.02833644,18.368911 8.29226844,18.368911 C9.55620043,18.368911 10.5843812,17.3431472 10.5843812,16.0823772 Z M46.4439553,19.2306521 C45.9160842,18.9614745 45.2695589,19.1292251 44.9403792,19.6211382 L36.7860947,31.811947 L36.7247433,17.6873466 C36.7222519,17.1469722 36.3480707,16.679445 35.8203554,16.5575152 C35.2929515,16.4357407 34.7504433,16.691405 34.5101763,17.1755519 L27.9267365,30.4443136 L21.3436081,17.1780371 C21.1034968,16.6938902 20.5600544,16.4379152 20.033429,16.5600004 C19.5057136,16.6819302 19.1313768,17.1496127 19.129041,17.6898317 L19.0676897,31.816762 L10.9135609,19.6211382 C10.5848483,19.1292251 9.93816731,18.9608532 9.41014053,19.2303414 C8.88211375,19.4998296 8.64060106,20.1211282 8.84816806,20.6753264 L16.5560199,41.2429478 C16.7266827,41.6983596 17.1626824,42 17.6499121,42 L38.2041838,42 C38.6914134,42 39.1275688,41.6983596 39.2980759,41.2429478 L47.0059278,20.6756371 C47.2134948,20.1215941 46.9719821,19.5002956 46.4439553,19.2306521 Z" id="Shape" fill-rule="nonzero"></path>
            <path d="M42,45.5 L42,45.5 L42,45.5 C42,46.8807119 40.8807119,48 39.5,48 L16.5,48 L16.5,48 C15.1192881,48 14,46.8807119 14,45.5 L14,45.5 L14,45.5 C14,44.1192881 15.1192881,43 16.5,43 L39.5,43 L39.5,43 C40.8807119,43 42,44.1192881 42,45.5 Z" id="Path"></path>
        </g>
    </g>
</svg>