<?xml version="1.0" encoding="UTF-8"?>
<svg width="133px" height="57px" viewBox="0 0 133 57" version="1.1" xmlns="http://www.w3.org/2000/svg" xmlns:xlink="http://www.w3.org/1999/xlink">
    <!-- Generator: Sketch 46.2 (44496) - http://www.bohemiancoding.com/sketch -->
    <title>logo</title>
    <desc>Created with Sketch.</desc>
    <defs></defs>
    <g id="Symbols" stroke="none" stroke-width="1" fill="none" fill-rule="evenodd">
        <g id="logo">
            <g>
                <path d="M39.5861111,35.23 L39.5861111,49 L34.8611111,49 L34.8611111,38.875 L32.8361111,38.875 L32.8361111,35.23 L39.5861111,35.23 Z M34.8611111,29.83 L39.5861111,29.83 L39.5861111,33.61 L34.8611111,33.61 L34.8611111,29.83 Z M52.2761111,49 C50.5301024,49.1800009 48.8201195,49.27 47.1461111,49.27 C45.922105,49.27 44.9411148,48.9010037 44.2031111,48.163 C43.4651074,47.4249963 43.0961111,46.4440061 43.0961111,45.22 L43.0961111,38.335 L41.4761111,38.335 L41.4761111,34.69 L43.0961111,34.69 L43.6361111,31.45 L47.8211111,31.45 L47.8211111,34.69 L51.1961111,34.69 L51.1961111,38.335 L47.8211111,38.335 L47.8211111,44.545 C47.8211111,44.8150014 47.9111102,45.0399991 48.0911111,45.22 C48.271112,45.4000009 48.4961098,45.49 48.7661111,45.49 L52.2761111,45.49 L52.2761111,49 Z M66.5861111,48.73 C63.2200943,49.0900018 60.250124,49.27 57.6761111,49.27 C56.452105,49.27 55.4711148,48.9010037 54.7331111,48.163 C53.9951074,47.4249963 53.6261111,46.4440061 53.6261111,45.22 L53.6261111,39.01 C53.6261111,37.6599932 54.0086073,36.6025038 54.7736111,35.8375 C55.5386149,35.0724962 56.5961044,34.69 57.9461111,34.69 L66.5861111,34.69 L66.5861111,38.335 L59.4311111,38.335 C58.7111075,38.335 58.3511111,38.6949964 58.3511111,39.415 L58.3511111,44.68 C58.3511111,44.9500014 58.4411102,45.1749991 58.6211111,45.355 C58.801112,45.5350009 59.0261098,45.625 59.2961111,45.625 C60.9161192,45.625 63.3460949,45.4900014 66.5861111,45.22 L66.5861111,48.73 Z M73.4711111,34.96 C75.2171198,34.5999982 76.7471045,34.42 78.0611111,34.42 L79.2761111,34.42 C80.5001172,34.42 81.4811074,34.7889963 82.2191111,35.527 C82.9571148,36.2650037 83.3261111,37.2459939 83.3261111,38.47 L83.3261111,49 L78.6011111,49 L78.6011111,39.01 C78.6011111,38.7399987 78.511112,38.5150009 78.3311111,38.335 C78.1511102,38.1549991 77.9261125,38.065 77.6561111,38.065 L76.7111111,38.065 C76.0271077,38.065 75.4016139,38.1009996 74.8346111,38.173 C74.2676083,38.2450004 73.8131128,38.2989998 73.4711111,38.335 L73.4711111,49 L68.7461111,49 L68.7461111,30.1 L73.4711111,30.1 L73.4711111,34.96 Z M91.2911111,37.795 C90.5711075,37.795 90.2111111,38.1549964 90.2111111,38.875 L90.2111111,40.36 L94.8011111,40.36 L94.8011111,38.875 C94.8011111,38.1549964 94.4411147,37.795 93.7211111,37.795 L91.2911111,37.795 Z M98.9861111,48.73 C95.5120937,49.0900018 92.3621252,49.27 89.5361111,49.27 C88.312105,49.27 87.3311148,48.9010037 86.5931111,48.163 C85.8551074,47.4249963 85.4861111,46.4440061 85.4861111,45.22 L85.4861111,38.74 C85.4861111,37.3899933 85.8686073,36.3325038 86.6336111,35.5675 C87.3986149,34.8024962 88.4561044,34.42 89.8061111,34.42 L95.2061111,34.42 C96.5561179,34.42 97.6136073,34.8024962 98.3786111,35.5675 C99.1436149,36.3325038 99.5261111,37.3899933 99.5261111,38.74 L99.5261111,43.735 L90.2111111,43.735 L90.2111111,44.815 C90.2111111,45.0850013 90.3011102,45.3099991 90.4811111,45.49 C90.661112,45.6700009 90.8861098,45.76 91.1561111,45.76 C92.93812,45.76 95.5480939,45.6250013 98.9861111,45.355 L98.9861111,48.73 Z M101.416111,45.22 C105.070129,45.4900014 107.950101,45.625 110.056111,45.625 C110.326112,45.625 110.55111,45.5350009 110.731111,45.355 C110.911112,45.1749991 111.001111,44.9500014 111.001111,44.68 L111.001111,43.735 L105.196111,43.735 C103.972105,43.735 102.991115,43.3660037 102.253111,42.628 C101.515107,41.8899963 101.146111,40.9090061 101.146111,39.685 L101.146111,38.74 C101.146111,37.5159939 101.515107,36.5350037 102.253111,35.797 C102.991115,35.0589963 103.972105,34.69 105.196111,34.69 L114.376111,34.69 L114.376111,38.2 L106.816111,38.2 C106.54611,38.2 106.321112,38.2899991 106.141111,38.47 C105.96111,38.6500009 105.871111,38.8749987 105.871111,39.145 C105.871111,39.4150013 105.96111,39.6399991 106.141111,39.82 C106.321112,40.0000009 106.54611,40.09 106.816111,40.09 L111.676111,40.09 C112.900117,40.09 113.881107,40.4589963 114.619111,41.197 C115.357115,41.9350037 115.726111,42.9159939 115.726111,44.14 L115.726111,45.22 C115.726111,46.4440061 115.357115,47.4249963 114.619111,48.163 C113.881107,48.9010037 112.900117,49.27 111.676111,49.27 C108.490095,49.27 105.070129,49.0900018 101.416111,48.73 L101.416111,45.22 Z M117.076111,45.22 C120.730129,45.4900014 123.610101,45.625 125.716111,45.625 C125.986112,45.625 126.21111,45.5350009 126.391111,45.355 C126.571112,45.1749991 126.661111,44.9500014 126.661111,44.68 L126.661111,43.735 L120.856111,43.735 C119.632105,43.735 118.651115,43.3660037 117.913111,42.628 C117.175107,41.8899963 116.806111,40.9090061 116.806111,39.685 L116.806111,38.74 C116.806111,37.5159939 117.175107,36.5350037 117.913111,35.797 C118.651115,35.0589963 119.632105,34.69 120.856111,34.69 L130.036111,34.69 L130.036111,38.2 L122.476111,38.2 C122.20611,38.2 121.981112,38.2899991 121.801111,38.47 C121.62111,38.6500009 121.531111,38.8749987 121.531111,39.145 C121.531111,39.4150013 121.62111,39.6399991 121.801111,39.82 C121.981112,40.0000009 122.20611,40.09 122.476111,40.09 L127.336111,40.09 C128.560117,40.09 129.541107,40.4589963 130.279111,41.197 C131.017115,41.9350037 131.386111,42.9159939 131.386111,44.14 L131.386111,45.22 C131.386111,46.4440061 131.017115,47.4249963 130.279111,48.163 C129.541107,48.9010037 128.560117,49.27 127.336111,49.27 C124.150095,49.27 120.730129,49.0900018 117.076111,48.73 L117.076111,45.22 Z" id="ItChess" fill="#3B3B3B"></path>
                <path d="M39.8884375,23.4102344 C40.9251563,23.4266406 41.9610938,23.4438281 42.9985938,23.4610156 C43.0298438,23.4297656 43.0595313,23.4000781 43.0892188,23.3696094 C43.0595313,23.1196094 43.0165625,22.8719531 43.0032813,22.6211719 C42.6985938,16.8282031 40.52125,11.8266406 36.5064063,7.67117187 C33.6103125,4.67585938 30.1001563,2.63601563 26.0532813,1.56023438 C24.024375,1.02117188 21.9626563,0.764140625 19.9275,0.782109375 C19.9290625,1.85710938 19.9314063,2.89226563 19.93375,3.92898438 C30.6470313,3.88914062 39.6360938,12.3071094 39.8884375,23.4102344" id="Fill-1" fill="#468189"></path>
                <path d="M20.0146094,7.28015625 C20.0107031,8.30125 20.0083594,9.32 20.0044531,10.3965625 C23.6599219,10.445 26.8153906,11.6489062 29.4060156,14.17625 C32.0099219,16.7153125 33.2786719,19.866875 33.4138281,23.441875 C34.5005469,23.42 35.5192969,23.4004687 36.5388281,23.3785937 C36.5919531,14.31375 28.5864844,6.9121875 20.0146094,7.28015625" id="Fill-4" fill="#468189"></path>
                <path d="M20.1778906,13.7079687 C20.1864844,14.743125 20.1935156,15.7751562 20.1974219,16.8001562 C24.2708594,17.1845312 26.5505469,19.4634375 27.0169531,23.5048437 C28.0669531,23.505625 29.0677344,23.5048437 30.1052344,23.505625 C30.1114844,17.93375 25.2263281,13.4860937 20.1778906,13.7079687" id="Fill-6" fill="#468189"></path>
                <path d="M20.9453667,39.778125 C24.7563042,34.1539062 22.0664605,29.7625 22.0664605,29.7625 C22.6906792,29.5773437 24.6906792,30.8867187 24.6906792,30.8867187 C23.5664605,26.7671875 17.3828667,23.2664062 17.3828667,23.2664062 C18.0695855,23.0164062 20.005523,23.5148437 20.005523,23.5148437 C14.9469292,18.646875 8.76333548,20.4570312 8.76333548,20.4570312 C8.57583548,19.3929687 5.51489798,17.521875 5.51489798,17.521875 C5.82661673,17.8296875 5.95317923,19.5203125 5.95317923,19.5203125 C5.64067923,18.9570312 4.63989798,18.3960937 4.63989798,18.3960937 C5.20161673,19.7054687 4.63989798,22.5148437 4.63989798,22.5148437 C3.01567923,24.1398437 1.20474173,29.7625 1.20474173,29.7625 L0.518022976,30.7601562 C-0.357758274,32.0125 -0.0351020244,33.9773437 0.830522976,34.4453125 C4.07583548,36.1992187 4.39067923,33.009375 4.39067923,33.009375 C7.07661673,32.6976562 9.07583548,29.696875 9.07583548,29.696875 C12.699273,31.5703125 10.6813042,36.8539062 9.11724173,38.8835937 C8.80396048,39.290625 8.58364798,39.7375 8.42271048,40.2007812 L20.6258355,40.2007812 C20.7328667,40.0601562 20.8453667,39.9257812 20.9453667,39.778125" id="Fill-8" fill="#468189"></path>
                <polygon id="Fill-10" fill="#468189" points="2.2484375 49.5478125 25.9554687 49.5478125 25.9554687 46.1821875 2.2484375 46.1821875"></polygon>
                <polygon id="Fill-12" fill="#468189" points="22.5032812 41.5086719 5.66421875 41.5086719 5.3259375 41.5086719 5.3259375 44.8742969 5.66421875 44.8742969 22.5032812 44.8742969 22.8782812 44.8742969 22.8782812 41.5086719"></polygon>
            </g>
        </g>
    </g>
</svg>