<?xml version="1.0" encoding="UTF-8"?>
<svg width="1247px" height="729px" viewBox="0 0 1247 729" version="1.1" xmlns="http://www.w3.org/2000/svg" xmlns:xlink="http://www.w3.org/1999/xlink">
    <!-- Generator: Sketch 46.2 (44496) - http://www.bohemiancoding.com/sketch -->
    <title>pattern</title>
    <desc>Created with Sketch.</desc>
    <defs></defs>
    <g id="Tour" stroke="none" stroke-width="1" fill="none" fill-rule="evenodd" opacity="0.599999964">
        <g id="01---Desktop-1256+-(1256+++)---register" transform="translate(-4.000000, 0.000000)" fill="#FFFFFF">
            <g id="pattern" transform="translate(-9.000000, -18.000000)">
                <g id="piece_tower_w" opacity="0.85" transform="translate(950.000000, 490.000000) rotate(-344.000000) translate(-950.000000, -490.000000) translate(913.000000, 453.000000)">
                    <g id="Group" transform="translate(22.872727, 13.454545)">
                        <path d="M4.85771745,12.1090909 L24.7417041,12.1090909 C25.938892,12.1090909 26.9090909,11.1349604 26.9090909,9.93318056 L26.9090909,1.21687908 C26.9090909,0.54403566 26.367302,0 25.6969786,0 L21.8942756,0 C21.2254562,0 20.6842458,0.54403566 20.6842458,1.21687908 L20.6842458,4.6873713 L17.9130589,4.6873713 L17.9130589,1.21687908 C17.9130589,0.54403566 17.37127,0 16.7025663,0 L12.8967396,0 C12.2280358,0 11.6868255,0.54403566 11.6868255,1.21687908 L11.6868255,4.6873713 L8.91506003,4.6873713 L8.91506003,1.21687908 C8.91506003,0.54403566 8.37384963,0 7.7050302,0 L3.90290569,0 C3.23211949,0 2.69090909,0.54403566 2.69090909,1.21687908 L2.69090909,9.93318056 C2.69102478,11.1349604 3.6606452,12.1090909 4.85771745,12.1090909 Z" id="Shape" fill-rule="nonzero"></path>
                        <path d="M3.24714025,44.4 L26.3529996,44.4 C26.9417758,44.4 27.4963302,44.0845091 27.8562169,43.5465537 C28.2179314,43.0081284 28.3412108,42.3067895 28.1934583,41.646091 L22.5387497,16.4473417 C22.3215382,15.4773775 21.5637859,14.8 20.698291,14.8 L8.90164578,14.8 C8.03574472,14.8 7.27850018,15.477495 7.06128869,16.4473417 L1.40647852,41.646091 C1.25882752,42.3067895 1.38210697,43.0081284 1.74382147,43.5465537 C2.10370811,44.0845091 2.65826254,44.4 3.24714025,44.4 Z" id="Shape" fill-rule="nonzero"></path>
                        <path d="M29.6,49.1090909 L29.6,49.1090909 L29.6,49.1090909 C29.6,50.966776 28.0940487,52.4727273 26.2363636,52.4727273 L3.36363636,52.4727273 L3.36363636,52.4727273 C1.5059513,52.4727273 2.27500807e-16,50.966776 0,49.1090909 L0,49.1090909 L0,49.1090909 C-2.27500807e-16,47.2514058 1.5059513,45.7454545 3.36363636,45.7454545 L26.2363636,45.7454545 L26.2363636,45.7454545 C28.0940487,45.7454545 29.6,47.2514058 29.6,49.1090909 Z" id="Path"></path>
                    </g>
                </g>
                <g id="piece_tower_w" opacity="0.97" transform="translate(894.500000, 381.500000) scale(1, -1) rotate(-58.000000) translate(-894.500000, -381.500000) translate(866.000000, 353.000000)">
                    <g id="Group" transform="translate(17.618182, 10.363636)">
                        <path d="M3.74175533,9.32727273 L19.0577991,9.32727273 C19.9799574,9.32727273 20.7272727,8.57692899 20.7272727,7.65123368 L20.7272727,0.937325779 C20.7272727,0.419054495 20.3099489,0 19.7936187,0 L16.8645096,0 C16.3493379,0 15.9324596,0.419054495 15.9324596,0.937325779 L15.9324596,3.61054275 L13.7978967,3.61054275 L13.7978967,0.937325779 C13.7978967,0.419054495 13.3805728,0 12.8654902,0 L9.93397509,0 C9.41889248,0 9.0020142,0.419054495 9.0020142,0.937325779 L9.0020142,3.61054275 L6.8670057,3.61054275 L6.8670057,0.937325779 C6.8670057,0.419054495 6.45012742,0 5.93495569,0 L3.00629222,0 C2.48960555,0 2.07272727,0.419054495 2.07272727,0.937325779 L2.07272727,7.65123368 C2.07281639,8.57692899 2.81968617,9.32727273 3.74175533,9.32727273 Z" id="Shape" fill-rule="nonzero"></path>
                        <path d="M2.5011756,34.2 L20.2989322,34.2 C20.7524489,34.2 21.1796057,33.9569867 21.4568157,33.5426157 C21.7354336,33.1278827 21.8303921,32.5876622 21.7165827,32.0787457 L17.3609288,12.6688984 C17.1936172,11.9217638 16.6099432,11.4 15.9432782,11.4 L6.8566731,11.4 C6.18969526,11.4 5.6064123,11.9218542 5.43910075,12.6688984 L1.08336859,32.0787457 C0.969637412,32.5876622 1.06459591,33.1278827 1.34321384,33.5426157 C1.62042381,33.9569867 2.04758061,34.2 2.5011756,34.2 Z" id="Shape" fill-rule="nonzero"></path>
                        <path d="M22.8,37.8272727 L22.8,37.8272727 L22.8,37.8272727 C22.8,39.2581923 21.6400105,40.4181818 20.2090909,40.4181818 L2.59090909,40.4181818 L2.59090909,40.4181818 C1.15998951,40.4181818 1.75237108e-16,39.2581923 0,37.8272727 L0,37.8272727 L0,37.8272727 C-1.75237108e-16,36.3963531 1.15998951,35.2363636 2.59090909,35.2363636 L20.2090909,35.2363636 L20.2090909,35.2363636 C21.6400105,35.2363636 22.8,36.3963531 22.8,37.8272727 Z" id="Path"></path>
                    </g>
                </g>
                <g id="piece_tower_w" opacity="0.8" transform="translate(416.000000, 715.000000) rotate(-18.000000) translate(-416.000000, -715.000000) translate(382.000000, 681.000000)">
                    <g id="Group" transform="translate(21.018182, 12.363636)">
                        <path d="M4.46384847,11.1272727 L22.73562,11.1272727 C23.8357386,11.1272727 24.7272727,10.2321258 24.7272727,9.12778754 L24.7272727,1.11821321 C24.7272727,0.499924661 24.2294127,0 23.6134398,0 L20.1190641,0 C19.5044733,0 19.0071448,0.499924661 19.0071448,1.11821321 L19.0071448,4.30731416 L16.4606487,4.30731416 L16.4606487,1.11821321 C16.4606487,0.499924661 15.9627886,0 15.3483041,0 L11.851058,0 C11.2365735,0 10.739245,0.499924661 10.739245,1.11821321 L10.739245,4.30731416 L8.19221732,4.30731416 L8.19221732,1.11821321 C8.19221732,0.499924661 7.69488885,0 7.08029802,0 L3.58645388,0 C2.97005574,0 2.47272727,0.499924661 2.47272727,1.11821321 L2.47272727,9.12778754 C2.47283358,10.2321258 3.36383613,11.1272727 4.46384847,11.1272727 Z" id="Shape" fill-rule="nonzero"></path>
                        <path d="M2.98385861,40.8 L24.2162699,40.8 C24.7573075,40.8 25.2668981,40.5100894 25.5976047,40.015752 C25.929991,39.5209828 26.0432748,38.8765093 25.9075022,38.2693809 L20.7112835,15.1137735 C20.5116837,14.222455 19.8153708,13.6 19.0200512,13.6 L8.17989071,13.6 C7.38419785,13.6 6.68835152,14.222563 6.48875177,15.1137735 L1.29243973,38.2693809 C1.15676042,38.8765093 1.27004424,39.5209828 1.60243054,40.015752 C1.93313718,40.5100894 2.44272774,40.8 2.98385861,40.8 Z" id="Shape" fill-rule="nonzero"></path>
                        <path d="M27.2,45.1272727 L27.2,45.1272727 L27.2,45.1272727 C27.2,46.8343347 25.8161529,48.2181818 24.1090909,48.2181818 L3.09090909,48.2181818 L3.09090909,48.2181818 C1.38384714,48.2181818 2.09054796e-16,46.8343347 0,45.1272727 L0,45.1272727 L0,45.1272727 C-2.09054796e-16,43.4202108 1.38384714,42.0363636 3.09090909,42.0363636 L24.1090909,42.0363636 L24.1090909,42.0363636 C25.8161529,42.0363636 27.2,43.4202108 27.2,45.1272727 Z" id="Path"></path>
                    </g>
                </g>
                <g id="piece_tower_w" opacity="0.74" transform="translate(231.500000, 592.500000) rotate(-200.000000) translate(-231.500000, -592.500000) translate(198.000000, 559.000000)">
                    <g id="Group" transform="translate(20.709091, 12.181818)">
                        <path d="M4.39820364,10.9636364 L22.4012726,10.9636364 C23.485213,10.9636364 24.3636364,10.0816534 24.3636364,8.99355537 L24.3636364,1.1017689 C24.3636364,0.492572828 23.8730978,0 23.2661833,0 L19.8231955,0 C19.2176428,0 18.727628,0.492572828 18.727628,1.1017689 L18.727628,4.24397131 L16.2185803,4.24397131 L16.2185803,1.1017689 C16.2185803,0.492572828 15.7280418,0 15.1225938,0 L11.6767777,0 C11.0713298,0 10.5813149,0.492572828 10.5813149,1.1017689 L10.5813149,4.24397131 L8.07174354,4.24397131 L8.07174354,1.1017689 C8.07174354,0.492572828 7.58172872,0 6.97617599,0 L3.53371191,0 C2.92637845,0 2.43636364,0.492572828 2.43636364,1.1017689 L2.43636364,8.99355537 C2.43646839,10.0816534 3.31436795,10.9636364 4.39820364,10.9636364 Z" id="Shape" fill-rule="nonzero"></path>
                        <path d="M2.93997834,40.2 L23.8601483,40.2 C24.3932295,40.2 24.895326,39.9143528 25.2211693,39.4272851 C25.5486676,38.9397919 25.6602855,38.3047959 25.5265095,37.7065959 L20.4067058,14.8915121 C20.2100413,14.0133013 19.5239683,13.4 18.7403446,13.4 L8.0595982,13.4 C7.27560671,13.4 6.58999341,14.0134076 6.39332895,14.8915121 L1.27343326,37.7065959 C1.13974924,38.3047959 1.25136712,38.9397919 1.57886539,39.4272851 C1.90470869,39.9143528 2.40680528,40.2 2.93997834,40.2 Z" id="Shape" fill-rule="nonzero"></path>
                        <path d="M26.8,44.4636364 L26.8,44.4636364 L26.8,44.4636364 C26.8,46.1455945 25.4365036,47.5090909 23.7545455,47.5090909 L3.04545455,47.5090909 L3.04545455,47.5090909 C1.36349644,47.5090909 2.05980461e-16,46.1455945 0,44.4636364 L0,44.4636364 L0,44.4636364 C-2.05980461e-16,42.7816783 1.36349644,41.4181818 3.04545455,41.4181818 L23.7545455,41.4181818 L23.7545455,41.4181818 C25.4365036,41.4181818 26.8,42.7816783 26.8,44.4636364 Z" id="Path"></path>
                    </g>
                </g>
                <g id="piece_tower_w" opacity="0.73" transform="translate(96.500000, 515.500000) rotate(-282.000000) translate(-96.500000, -515.500000) translate(74.000000, 493.000000)">
                    <g id="Group" transform="translate(13.909091, 8.181818)">
                        <path d="M2.95401737,7.36363636 L15.0456309,7.36363636 C15.7736506,7.36363636 16.3636364,6.77125973 16.3636364,6.04044764 L16.3636364,0.739994036 C16.3636364,0.330832496 16.0341702,0 15.626541,0 L13.3140865,0 C12.907372,0 12.5782576,0.330832496 12.5782576,0.739994036 L12.5782576,2.85042849 L10.8930763,2.85042849 L10.8930763,0.739994036 C10.8930763,0.330832496 10.5636101,0 10.156966,0 L7.84261191,0 C7.43596775,0 7.10685332,0.330832496 7.10685332,0.739994036 L7.10685332,2.85042849 L5.42132029,2.85042849 L5.42132029,0.739994036 C5.42132029,0.330832496 5.09220586,0 4.68549134,0 L2.3733886,0 C1.96547807,0 1.63636364,0.330832496 1.63636364,0.739994036 L1.63636364,6.04044764 C1.63643399,6.77125973 2.22606803,7.36363636 2.95401737,7.36363636 Z" id="Shape" fill-rule="nonzero"></path>
                        <path d="M1.97461232,27 L16.0254728,27 C16.3835123,27 16.7207414,26.8081474 16.9395913,26.4810124 C17.1595529,26.1535916 17.2345201,25.7271017 17.1446706,25.3253256 L13.7059964,10.0017619 C13.5739083,9.41191876 13.113113,9 12.5867986,9 L5.41316297,9 C4.88660152,9 4.42611497,9.41199019 4.29402691,10.0017619 L0.855290995,25.3253256 C0.76550322,25.7271017 0.840470454,26.1535916 1.06043198,26.4810124 C1.27928196,26.8081474 1.61651101,27 1.97461232,27 Z" id="Shape" fill-rule="nonzero"></path>
                        <path d="M18,29.8636364 L18,29.8636364 L18,29.8636364 C18,30.9933097 17.0842188,31.9090909 15.9545455,31.9090909 L2.04545455,31.9090909 L2.04545455,31.9090909 C0.915781194,31.9090909 1.38345085e-16,30.9933097 0,29.8636364 L0,29.8636364 L0,29.8636364 C-1.38345085e-16,28.733963 0.915781194,27.8181818 2.04545455,27.8181818 L15.9545455,27.8181818 L15.9545455,27.8181818 C17.0842188,27.8181818 18,28.733963 18,29.8636364 Z" id="Path"></path>
                    </g>
                </g>
                <g id="piece_tower_w" opacity="0.88" transform="translate(87.000000, 441.000000) scale(-1, 1) rotate(-188.000000) translate(-87.000000, -441.000000) translate(53.000000, 407.000000)">
                    <g id="Group" transform="translate(21.018182, 12.363636)">
                        <path d="M4.46384847,11.1272727 L22.73562,11.1272727 C23.8357386,11.1272727 24.7272727,10.2321258 24.7272727,9.12778754 L24.7272727,1.11821321 C24.7272727,0.499924661 24.2294127,0 23.6134398,0 L20.1190641,0 C19.5044733,0 19.0071448,0.499924661 19.0071448,1.11821321 L19.0071448,4.30731416 L16.4606487,4.30731416 L16.4606487,1.11821321 C16.4606487,0.499924661 15.9627886,0 15.3483041,0 L11.851058,0 C11.2365735,0 10.739245,0.499924661 10.739245,1.11821321 L10.739245,4.30731416 L8.19221732,4.30731416 L8.19221732,1.11821321 C8.19221732,0.499924661 7.69488885,0 7.08029802,0 L3.58645388,0 C2.97005574,0 2.47272727,0.499924661 2.47272727,1.11821321 L2.47272727,9.12778754 C2.47283358,10.2321258 3.36383613,11.1272727 4.46384847,11.1272727 Z" id="Shape" fill-rule="nonzero"></path>
                        <path d="M2.98385861,40.8 L24.2162699,40.8 C24.7573075,40.8 25.2668981,40.5100894 25.5976047,40.015752 C25.929991,39.5209828 26.0432748,38.8765093 25.9075022,38.2693809 L20.7112835,15.1137735 C20.5116837,14.222455 19.8153708,13.6 19.0200512,13.6 L8.17989071,13.6 C7.38419785,13.6 6.68835152,14.222563 6.48875177,15.1137735 L1.29243973,38.2693809 C1.15676042,38.8765093 1.27004424,39.5209828 1.60243054,40.015752 C1.93313718,40.5100894 2.44272774,40.8 2.98385861,40.8 Z" id="Shape" fill-rule="nonzero"></path>
                        <path d="M27.2,45.1272727 L27.2,45.1272727 L27.2,45.1272727 C27.2,46.8343347 25.8161529,48.2181818 24.1090909,48.2181818 L3.09090909,48.2181818 L3.09090909,48.2181818 C1.38384714,48.2181818 2.09054796e-16,46.8343347 0,45.1272727 L0,45.1272727 L0,45.1272727 C-2.09054796e-16,43.4202108 1.38384714,42.0363636 3.09090909,42.0363636 L24.1090909,42.0363636 L24.1090909,42.0363636 C25.8161529,42.0363636 27.2,43.4202108 27.2,45.1272727 Z" id="Path"></path>
                    </g>
                </g>
                <g id="piece_knight_w" opacity="0.96" transform="translate(1222.000000, 729.000000) rotate(-294.000000) translate(-1222.000000, -729.000000) translate(1198.000000, 705.000000)">
                    <g id="knight" stroke-width="1" transform="translate(12.218182, 8.727273)">
                        <path d="M11.8568182,0 L5.40168283,0 C4.60160536,0 4.08254737,0.84357395 4.43928294,1.5570451 L6.2935862,5.26552274 L0.23745856,13.3403381 C-0.0833843626,13.7690523 -0.0413055459,14.3685949 0.337597122,14.7467887 L2.48928743,16.898479 C2.77791073,17.1871023 3.20372516,17.2858877 3.59036054,17.1584269 L8.62925051,15.4788184 C9.27641684,16.2141516 9.17133793,17.1076659 8.3140138,18.1593614 L5.90173125,20.571644 C3.6267687,22.5663056 3.1014601,25.3090909 4.32580546,28.8 L21.3818182,28.8 C21.9636364,27.6363636 21.9636364,26.4727273 21.3818182,25.3090909 C20.6944058,23.9342661 20.0727273,22.6909091 20.0727273,20.5090909 C20.0727273,16.7523373 23.1272727,16.5818182 23.5636364,11.8343933 C23.5635777,5.89455473 19.2699307,0.962312109 13.5776383,0.125215123 C13.0166905,0.0427232881 12.4421604,0 11.8568182,0 Z" id="Shape" fill-rule="nonzero"></path>
                    </g>
                    <path d="M35.7818182,40.5818182 L35.7818182,40.5818182 L35.7818182,40.5818182 C35.7818182,41.7868031 34.8049849,42.7636364 33.6,42.7636364 L16.1454545,42.7636364 L16.1454545,42.7636364 C14.9404696,42.7636364 13.9636364,41.7868031 13.9636364,40.5818182 L13.9636364,40.5818182 L13.9636364,40.5818182 C13.9636364,39.3768333 14.9404696,38.4 16.1454545,38.4 L33.6,38.4 L33.6,38.4 C34.8049849,38.4 35.7818182,39.3768333 35.7818182,40.5818182 Z" id="Path"></path>
                </g>
                <g id="piece_knight_w" opacity="0.99" transform="translate(1006.000000, 637.000000) scale(-1, 1) rotate(-305.000000) translate(-1006.000000, -637.000000) translate(971.000000, 602.000000)">
                    <g id="knight" stroke-width="1" transform="translate(17.818182, 12.727273)">
                        <path d="M17.2911932,0 L7.87745413,0 C6.71067448,0 5.95371491,1.23021201 6.47395429,2.27069077 L9.17814655,7.67888733 L0.346293733,19.4546598 C-0.121602196,20.079868 -0.0602372545,20.9542009 0.492329136,21.5057336 L3.63021083,24.6436153 C4.05111982,25.0645243 4.67209919,25.2085862 5.23594245,25.0227059 L12.5843237,22.5732768 C13.5281079,23.6456377 13.3748678,24.9486795 12.1246035,26.4824021 L8.60669141,30.0003141 C5.28903769,32.9091956 4.52296265,36.9090909 6.3084663,42 L31.1818182,42 C32.030303,40.3030303 32.030303,38.6060606 31.1818182,36.9090909 C30.1793418,34.9041381 29.2727273,33.0909091 29.2727273,29.9090909 C29.2727273,24.4304919 33.7272727,24.1818182 34.3636364,17.2584903 C34.3635508,8.59622564 28.1019822,1.40337183 19.8007225,0.182605387 C18.9826737,0.0623047951 18.1448172,0 17.2911932,0 Z" id="Shape" fill-rule="nonzero"></path>
                    </g>
                    <path d="M52.1818182,59.1818182 L52.1818182,59.1818182 L52.1818182,59.1818182 C52.1818182,60.9390878 50.7572697,62.3636364 49,62.3636364 L23.5454545,62.3636364 L23.5454545,62.3636364 C21.7881849,62.3636364 20.3636364,60.9390878 20.3636364,59.1818182 L20.3636364,59.1818182 L20.3636364,59.1818182 C20.3636364,57.4245485 21.7881849,56 23.5454545,56 L49,56 L49,56 C50.7572697,56 52.1818182,57.4245485 52.1818182,59.1818182 Z" id="Path"></path>
                </g>
                <g id="piece_knight_w" opacity="0.9" transform="translate(671.500000, 340.500000) scale(1, -1) rotate(-352.000000) translate(-671.500000, -340.500000) translate(639.000000, 308.000000)">
                    <g id="knight" stroke-width="1" transform="translate(16.545455, 11.818182)">
                        <path d="M16.056108,0 L7.31477883,0 C6.23134059,0 5.52844956,1.14233972 6.01152898,2.10849857 L8.52256465,7.13039538 L0.321558466,18.0650412 C-0.112916324,18.6455917 -0.0559345935,19.4574723 0.457162769,19.9696097 L3.37091006,22.883357 C3.76175412,23.2742011 4.33837782,23.4079729 4.86194656,23.2353697 L11.6854434,20.9608999 C12.5618145,21.9566636 12.4195201,23.166631 11.2585604,24.5908019 L7.99192773,27.8574346 C4.91124928,30.5585388 4.19989389,34.2727273 5.85786156,39 L28.9545455,39 C29.7424242,37.4242424 29.7424242,35.8484848 28.9545455,34.2727273 C28.0236745,32.4109854 27.1818182,30.7272727 27.1818182,27.7727273 C27.1818182,22.6854568 31.3181818,22.4545455 31.9090909,16.025741 C31.9090115,7.98220953 26.0946978,1.30313098 18.3863851,0.169562145 C17.6267684,0.0578544526 16.8487588,0 16.056108,0 Z" id="Shape" fill-rule="nonzero"></path>
                    </g>
                    <path d="M48.4545455,54.9545455 L48.4545455,54.9545455 L48.4545455,54.9545455 C48.4545455,56.5862959 47.1317504,57.9090909 45.5,57.9090909 L21.8636364,57.9090909 L21.8636364,57.9090909 C20.231886,57.9090909 18.9090909,56.5862959 18.9090909,54.9545455 L18.9090909,54.9545455 L18.9090909,54.9545455 C18.9090909,53.3227951 20.231886,52 21.8636364,52 L45.5,52 L45.5,52 C47.1317504,52 48.4545455,53.3227951 48.4545455,54.9545455 Z" id="Path"></path>
                </g>
                <g id="piece_knight_w" opacity="0.78" transform="translate(449.000000, 53.000000) scale(-1, 1) rotate(-211.000000) translate(-449.000000, -53.000000) translate(424.000000, 28.000000)">
                    <g id="knight" stroke-width="1" transform="translate(12.727273, 9.090909)">
                        <path d="M12.3508523,0 L5.62675295,0 C4.79333892,0 4.25265351,0.878722865 4.62425306,1.62192198 L6.55581896,5.48491952 L0.247352666,13.8961855 C-0.0868587111,14.3427628 -0.0430266104,14.9672864 0.351663669,15.3612383 L2.59300774,17.6025823 C2.89365701,17.9032316 3.33721371,18.006133 3.73995889,17.8733613 L8.98880261,16.1237691 C9.6629342,16.8897412 9.55347701,17.8204853 8.66043104,18.9160015 L6.14763672,21.4287958 C3.77788406,23.5065683 3.23068761,26.3636364 4.50604735,30 L22.2727273,30 C22.8787879,28.7878788 22.8787879,27.5757576 22.2727273,26.3636364 C21.5566727,24.9315272 20.9090909,23.6363636 20.9090909,21.3636364 C20.9090909,17.4503513 24.0909091,17.2727273 24.5454545,12.3274931 C24.5453934,6.14016117 20.0728444,1.00240845 14.1433732,0.130432419 C13.5590526,0.0445034251 12.9605837,0 12.3508523,0 Z" id="Shape" fill-rule="nonzero"></path>
                    </g>
                    <path d="M37.2727273,42.2727273 L37.2727273,42.2727273 L37.2727273,42.2727273 C37.2727273,43.5279199 36.2551926,44.5454545 35,44.5454545 L16.8181818,44.5454545 L16.8181818,44.5454545 C15.5629892,44.5454545 14.5454545,43.5279199 14.5454545,42.2727273 L14.5454545,42.2727273 L14.5454545,42.2727273 C14.5454545,41.0175347 15.5629892,40 16.8181818,40 L35,40 L35,40 C36.2551926,40 37.2727273,41.0175347 37.2727273,42.2727273 Z" id="Path"></path>
                </g>
                <g id="piece_knight_w" opacity="0.92" transform="translate(282.500000, 719.500000) scale(1, -1) rotate(-250.000000) translate(-282.500000, -719.500000) translate(257.000000, 694.000000)">
                    <g id="knight" stroke-width="1" transform="translate(12.981818, 9.272727)">
                        <path d="M12.5978693,0 L5.73928801,0 C4.8892057,0 4.33770658,0.896297322 4.71673813,1.65436041 L6.68693534,5.59461791 L0.25229972,14.1741092 C-0.0885958853,14.6296181 -0.0438871426,15.2666321 0.358696942,15.668463 L2.64486789,17.954634 C2.95153015,18.2612962 3.40395798,18.3662557 3.81475807,18.2308286 L9.16857866,16.4462445 C9.85619289,17.2275361 9.74454655,18.1768951 8.83363966,19.2943215 L6.27058945,21.8573717 C3.85344174,23.9766997 3.29530136,26.8909091 4.5961683,30.6 L22.7181818,30.6 C23.3363636,29.3636364 23.3363636,28.1272727 22.7181818,26.8909091 C21.9878061,25.4301577 21.3272727,24.1090909 21.3272727,21.7909091 C21.3272727,17.7993584 24.5727273,17.6181818 25.0363636,12.5740429 C25.0363013,6.2629644 20.4743013,1.02245662 14.4262406,0.133041068 C13.8302337,0.0453934936 13.2197954,0 12.5978693,0 Z" id="Shape" fill-rule="nonzero"></path>
                    </g>
                    <path d="M38.0181818,43.1181818 L38.0181818,43.1181818 L38.0181818,43.1181818 C38.0181818,44.3984783 36.9802965,45.4363636 35.7,45.4363636 L17.1545455,45.4363636 L17.1545455,45.4363636 C15.874249,45.4363636 14.8363636,44.3984783 14.8363636,43.1181818 L14.8363636,43.1181818 L14.8363636,43.1181818 C14.8363636,41.8378854 15.874249,40.8 17.1545455,40.8 L35.7,40.8 L35.7,40.8 C36.9802965,40.8 38.0181818,41.8378854 38.0181818,43.1181818 Z" id="Path"></path>
                </g>
                <g id="piece_knight_w" opacity="0.95" transform="translate(24.375385, 24.375385) rotate(-5.000000) translate(-24.375385, -24.375385) translate(1.875385, 1.875385)">
                    <g id="knight" stroke-width="1" transform="translate(11.454545, 8.181818)">
                        <path d="M11.115767,0 L5.06407765,0 C4.31400503,0 3.82738816,0.790850578 4.16182776,1.45972978 L5.90023707,4.93642757 L0.2226174,12.506567 C-0.07817284,12.9084865 -0.0387239493,13.4705577 0.316497302,13.8251144 L2.33370696,15.8423241 C2.60429131,16.1129085 3.00349234,16.2055197 3.365963,16.0860252 L8.08992235,14.5113922 C8.69664078,15.2007671 8.59812931,16.0384368 7.79438793,17.0244013 L5.53287305,19.2859162 C3.40009566,21.1559115 2.90761885,23.7272727 4.05544262,27 L20.0454545,27 C20.5909091,25.9090909 20.5909091,24.8181818 20.0454545,23.7272727 C19.4010054,22.4383745 18.8181818,21.2727273 18.8181818,19.2272727 C18.8181818,15.7053162 21.6818182,15.5454545 22.0909091,11.0947437 C22.0908541,5.52614506 18.06556,0.902167602 12.7290359,0.117389178 C12.2031474,0.0400530826 11.6645253,0 11.115767,0 Z" id="Shape" fill-rule="nonzero"></path>
                    </g>
                    <path d="M33.5454545,38.0454545 L33.5454545,38.0454545 L33.5454545,38.0454545 C33.5454545,39.1751279 32.6296734,40.0909091 31.5,40.0909091 L15.1363636,40.0909091 L15.1363636,40.0909091 C14.0066903,40.0909091 13.0909091,39.1751279 13.0909091,38.0454545 L13.0909091,38.0454545 L13.0909091,38.0454545 C13.0909091,36.9157812 14.0066903,36 15.1363636,36 L31.5,36 L31.5,36 C32.6296734,36 33.5454545,36.9157812 33.5454545,38.0454545 Z" id="Path"></path>
                </g>
                <g id="piece_bishop_w" opacity="0.74" transform="translate(1236.000000, 441.000000) scale(-1, -1) rotate(-85.000000) translate(-1236.000000, -441.000000) translate(1206.000000, 411.000000)">
                    <path d="M42.5454545,50.7272727 L42.5454545,50.7272727 L42.5454545,50.7272727 C42.5454545,52.2335039 41.324413,53.4545455 39.8181818,53.4545455 L21.2727273,53.4545455 L21.2727273,53.4545455 C19.7664961,53.4545455 18.5454545,52.2335039 18.5454545,50.7272727 L18.5454545,50.7272727 L18.5454545,50.7272727 C18.5454545,49.2210416 19.7664961,48 21.2727273,48 L39.8181818,48 L39.8181818,48 C41.324413,48 42.5454545,49.2210416 42.5454545,50.7272727 Z" id="Path"></path>
                    <path d="M37.0909091,41.4545455 L37.0909091,30.5454545 L38.1818182,30.5454545 C39.3861818,30.5454545 40.3636364,29.568 40.3636364,28.3636364 C40.3636364,27.1592727 39.3861818,26.1818182 38.1818182,26.1818182 L36,26.1818182 C36,26.1818182 38.2232727,24.8770909 38.2232727,20.9563636 C38.2232727,18.6796364 35.6694545,14.9607273 33.5072727,12.2214545 C34.3690909,11.6236364 34.9090909,10.7683636 34.9090909,9.81818182 C34.9090909,8.01054545 32.9552727,6.54545455 30.5454545,6.54545455 C28.1356364,6.54545455 26.1818182,8.01054545 26.1818182,9.81818182 C26.1818182,10.7683636 26.7218182,11.6236364 27.5836364,12.2214545 C25.4214545,14.9607273 22.8676364,18.6796364 22.8676364,20.9563636 C22.8676364,24.8770909 25.0909091,26.1818182 25.0909091,26.1818182 L22.9090909,26.1818182 C21.7047273,26.1818182 20.7272727,27.1592727 20.7272727,28.3636364 C20.7272727,29.568 21.7047273,30.5454545 22.9090909,30.5454545 L24,30.5454545 L24,41.4545455 C22.1443636,41.6301818 20.7272727,43.1890909 20.7272727,45.0523636 L20.7272727,46.9090909 L40.3636364,46.9090909 L40.3636364,45.0523636 C40.3636364,43.1890909 38.9465455,41.6301818 37.0909091,41.4545455" id="Page-1"></path>
                </g>
                <g id="piece_bishop_w" opacity="0.92" transform="translate(1127.500000, 677.500000) scale(1, -1) rotate(-305.000000) translate(-1127.500000, -677.500000) translate(1093.000000, 643.000000)">
                    <path d="M48.9272727,58.3363636 L48.9272727,58.3363636 L48.9272727,58.3363636 C48.9272727,60.0685294 47.5230749,61.4727273 45.7909091,61.4727273 L24.4636364,61.4727273 L24.4636364,61.4727273 C22.7314706,61.4727273 21.3272727,60.0685294 21.3272727,58.3363636 L21.3272727,58.3363636 L21.3272727,58.3363636 C21.3272727,56.6041978 22.7314706,55.2 24.4636364,55.2 L45.7909091,55.2 L45.7909091,55.2 C47.5230749,55.2 48.9272727,56.6041978 48.9272727,58.3363636 Z" id="Path"></path>
                    <path d="M42.6545455,47.6727273 L42.6545455,35.1272727 L43.9090909,35.1272727 C45.2941091,35.1272727 46.4181818,34.0032 46.4181818,32.6181818 C46.4181818,31.2331636 45.2941091,30.1090909 43.9090909,30.1090909 L41.4,30.1090909 C41.4,30.1090909 43.9567636,28.6086545 43.9567636,24.0998182 C43.9567636,21.4815818 41.0198727,17.2048364 38.5333636,14.0546727 C39.5244545,13.3671818 40.1454545,12.3836182 40.1454545,11.2909091 C40.1454545,9.21212727 37.8985636,7.52727273 35.1272727,7.52727273 C32.3559818,7.52727273 30.1090909,9.21212727 30.1090909,11.2909091 C30.1090909,12.3836182 30.7300909,13.3671818 31.7211818,14.0546727 C29.2346727,17.2048364 26.2977818,21.4815818 26.2977818,24.0998182 C26.2977818,28.6086545 28.8545455,30.1090909 28.8545455,30.1090909 L26.3454545,30.1090909 C24.9604364,30.1090909 23.8363636,31.2331636 23.8363636,32.6181818 C23.8363636,34.0032 24.9604364,35.1272727 26.3454545,35.1272727 L27.6,35.1272727 L27.6,47.6727273 C25.4660182,47.8747091 23.8363636,49.6674545 23.8363636,51.8102182 L23.8363636,53.9454545 L46.4181818,53.9454545 L46.4181818,51.8102182 C46.4181818,49.6674545 44.7885273,47.8747091 42.6545455,47.6727273" id="Page-1"></path>
                </g>
                <g id="piece_bishop_w" opacity="0.95" transform="translate(1076.000000, 557.000000) scale(-1, 1) rotate(-161.000000) translate(-1076.000000, -557.000000) translate(1042.000000, 523.000000)">
                    <path d="M48.2181818,57.4909091 L48.2181818,57.4909091 L48.2181818,57.4909091 C48.2181818,59.197971 46.8343347,60.5818182 45.1272727,60.5818182 L24.1090909,60.5818182 L24.1090909,60.5818182 C22.402029,60.5818182 21.0181818,59.197971 21.0181818,57.4909091 L21.0181818,57.4909091 L21.0181818,57.4909091 C21.0181818,55.7838471 22.402029,54.4 24.1090909,54.4 L45.1272727,54.4 L45.1272727,54.4 C46.8343347,54.4 48.2181818,55.7838471 48.2181818,57.4909091 Z" id="Path"></path>
                    <path d="M42.0363636,46.9818182 L42.0363636,34.6181818 L43.2727273,34.6181818 C44.6376727,34.6181818 45.7454545,33.5104 45.7454545,32.1454545 C45.7454545,30.7805091 44.6376727,29.6727273 43.2727273,29.6727273 L40.8,29.6727273 C40.8,29.6727273 43.3197091,28.1940364 43.3197091,23.7505455 C43.3197091,21.1702545 40.4253818,16.9554909 37.9749091,13.8509818 C38.9516364,13.1734545 39.5636364,12.2041455 39.5636364,11.1272727 C39.5636364,9.07861818 37.3493091,7.41818182 34.6181818,7.41818182 C31.8870545,7.41818182 29.6727273,9.07861818 29.6727273,11.1272727 C29.6727273,12.2041455 30.2847273,13.1734545 31.2614545,13.8509818 C28.8109818,16.9554909 25.9166545,21.1702545 25.9166545,23.7505455 C25.9166545,28.1940364 28.4363636,29.6727273 28.4363636,29.6727273 L25.9636364,29.6727273 C24.5986909,29.6727273 23.4909091,30.7805091 23.4909091,32.1454545 C23.4909091,33.5104 24.5986909,34.6181818 25.9636364,34.6181818 L27.2,34.6181818 L27.2,46.9818182 C25.0969455,47.1808727 23.4909091,48.9476364 23.4909091,51.0593455 L23.4909091,53.1636364 L45.7454545,53.1636364 L45.7454545,51.0593455 C45.7454545,48.9476364 44.1394182,47.1808727 42.0363636,46.9818182" id="Page-1"></path>
                </g>
                <g id="piece_bishop_w" opacity="0.81" transform="translate(1100.500000, 389.500000) scale(-1, -1) rotate(-74.000000) translate(-1100.500000, -389.500000) translate(1068.000000, 357.000000)">
                    <path d="M46.0909091,54.9545455 L46.0909091,54.9545455 L46.0909091,54.9545455 C46.0909091,56.5862959 44.768114,57.9090909 43.1363636,57.9090909 L23.0454545,57.9090909 L23.0454545,57.9090909 C21.4137041,57.9090909 20.0909091,56.5862959 20.0909091,54.9545455 L20.0909091,54.9545455 L20.0909091,54.9545455 C20.0909091,53.3227951 21.4137041,52 23.0454545,52 L43.1363636,52 L43.1363636,52 C44.768114,52 46.0909091,53.3227951 46.0909091,54.9545455 Z" id="Path"></path>
                    <path d="M40.1818182,44.9090909 L40.1818182,33.0909091 L41.3636364,33.0909091 C42.6683636,33.0909091 43.7272727,32.032 43.7272727,30.7272727 C43.7272727,29.4225455 42.6683636,28.3636364 41.3636364,28.3636364 L39,28.3636364 C39,28.3636364 41.4085455,26.9501818 41.4085455,22.7027273 C41.4085455,20.2362727 38.6419091,16.2074545 36.2995455,13.2399091 C37.2331818,12.5922727 37.8181818,11.6657273 37.8181818,10.6363636 C37.8181818,8.67809091 35.7015455,7.09090909 33.0909091,7.09090909 C30.4802727,7.09090909 28.3636364,8.67809091 28.3636364,10.6363636 C28.3636364,11.6657273 28.9486364,12.5922727 29.8822727,13.2399091 C27.5399091,16.2074545 24.7732727,20.2362727 24.7732727,22.7027273 C24.7732727,26.9501818 27.1818182,28.3636364 27.1818182,28.3636364 L24.8181818,28.3636364 C23.5134545,28.3636364 22.4545455,29.4225455 22.4545455,30.7272727 C22.4545455,32.032 23.5134545,33.0909091 24.8181818,33.0909091 L26,33.0909091 L26,44.9090909 C23.9897273,45.0993636 22.4545455,46.7881818 22.4545455,48.8067273 L22.4545455,50.8181818 L43.7272727,50.8181818 L43.7272727,48.8067273 C43.7272727,46.7881818 42.1920909,45.0993636 40.1818182,44.9090909" id="Page-1"></path>
                </g>
                <g id="piece_bishop_w" opacity="0.89" transform="translate(864.500000, 692.500000) scale(-1, -1) rotate(-166.000000) translate(-864.500000, -692.500000) translate(837.000000, 665.000000)">
                    <path d="M39,46.5 L39,46.5 L39,46.5 C39,47.8807119 37.8807119,49 36.5,49 L19.5,49 L19.5,49 C18.1192881,49 17,47.8807119 17,46.5 L17,46.5 L17,46.5 C17,45.1192881 18.1192881,44 19.5,44 L36.5,44 L36.5,44 C37.8807119,44 39,45.1192881 39,46.5 Z" id="Path"></path>
                    <path d="M34,38 L34,28 L35,28 C36.104,28 37,27.104 37,26 C37,24.896 36.104,24 35,24 L33,24 C33,24 35.038,22.804 35.038,19.21 C35.038,17.123 32.697,13.714 30.715,11.203 C31.505,10.655 32,9.871 32,9 C32,7.343 30.209,6 28,6 C25.791,6 24,7.343 24,9 C24,9.871 24.495,10.655 25.285,11.203 C23.303,13.714 20.962,17.123 20.962,19.21 C20.962,22.804 23,24 23,24 L21,24 C19.896,24 19,24.896 19,26 C19,27.104 19.896,28 21,28 L22,28 L22,38 C20.299,38.161 19,39.59 19,41.298 L19,43 L37,43 L37,41.298 C37,39.59 35.701,38.161 34,38" id="Page-1"></path>
                </g>
                <g id="piece_bishop_w" opacity="0.87" transform="translate(846.000000, 81.000000) scale(-1, -1) rotate(-334.000000) translate(-846.000000, -81.000000) translate(822.000000, 57.000000)">
                    <path d="M34.0363636,40.5818182 L34.0363636,40.5818182 L34.0363636,40.5818182 C34.0363636,41.7868031 33.0595304,42.7636364 31.8545455,42.7636364 L17.0181818,42.7636364 L17.0181818,42.7636364 C15.8131969,42.7636364 14.8363636,41.7868031 14.8363636,40.5818182 L14.8363636,40.5818182 L14.8363636,40.5818182 C14.8363636,39.3768333 15.8131969,38.4 17.0181818,38.4 L31.8545455,38.4 L31.8545455,38.4 C33.0595304,38.4 34.0363636,39.3768333 34.0363636,40.5818182 Z" id="Path"></path>
                    <path d="M29.6727273,33.1636364 L29.6727273,24.4363636 L30.5454545,24.4363636 C31.5089455,24.4363636 32.2909091,23.6544 32.2909091,22.6909091 C32.2909091,21.7274182 31.5089455,20.9454545 30.5454545,20.9454545 L28.8,20.9454545 C28.8,20.9454545 30.5786182,19.9016727 30.5786182,16.7650909 C30.5786182,14.9437091 28.5355636,11.9685818 26.8058182,9.77716364 C27.4952727,9.29890909 27.9272727,8.61469091 27.9272727,7.85454545 C27.9272727,6.40843636 26.3642182,5.23636364 24.4363636,5.23636364 C22.5085091,5.23636364 20.9454545,6.40843636 20.9454545,7.85454545 C20.9454545,8.61469091 21.3774545,9.29890909 22.0669091,9.77716364 C20.3371636,11.9685818 18.2941091,14.9437091 18.2941091,16.7650909 C18.2941091,19.9016727 20.0727273,20.9454545 20.0727273,20.9454545 L18.3272727,20.9454545 C17.3637818,20.9454545 16.5818182,21.7274182 16.5818182,22.6909091 C16.5818182,23.6544 17.3637818,24.4363636 18.3272727,24.4363636 L19.2,24.4363636 L19.2,33.1636364 C17.7154909,33.3041455 16.5818182,34.5512727 16.5818182,36.0418909 L16.5818182,37.5272727 L32.2909091,37.5272727 L32.2909091,36.0418909 C32.2909091,34.5512727 31.1572364,33.3041455 29.6727273,33.1636364" id="Page-1"></path>
                </g>
                <g id="piece_bishop_w" opacity="0.89" transform="translate(728.000000, 133.000000) rotate(-162.000000) translate(-728.000000, -133.000000) translate(704.000000, 109.000000)">
                    <path d="M34.0363636,40.5818182 L34.0363636,40.5818182 L34.0363636,40.5818182 C34.0363636,41.7868031 33.0595304,42.7636364 31.8545455,42.7636364 L17.0181818,42.7636364 L17.0181818,42.7636364 C15.8131969,42.7636364 14.8363636,41.7868031 14.8363636,40.5818182 L14.8363636,40.5818182 L14.8363636,40.5818182 C14.8363636,39.3768333 15.8131969,38.4 17.0181818,38.4 L31.8545455,38.4 L31.8545455,38.4 C33.0595304,38.4 34.0363636,39.3768333 34.0363636,40.5818182 Z" id="Path"></path>
                    <path d="M29.6727273,33.1636364 L29.6727273,24.4363636 L30.5454545,24.4363636 C31.5089455,24.4363636 32.2909091,23.6544 32.2909091,22.6909091 C32.2909091,21.7274182 31.5089455,20.9454545 30.5454545,20.9454545 L28.8,20.9454545 C28.8,20.9454545 30.5786182,19.9016727 30.5786182,16.7650909 C30.5786182,14.9437091 28.5355636,11.9685818 26.8058182,9.77716364 C27.4952727,9.29890909 27.9272727,8.61469091 27.9272727,7.85454545 C27.9272727,6.40843636 26.3642182,5.23636364 24.4363636,5.23636364 C22.5085091,5.23636364 20.9454545,6.40843636 20.9454545,7.85454545 C20.9454545,8.61469091 21.3774545,9.29890909 22.0669091,9.77716364 C20.3371636,11.9685818 18.2941091,14.9437091 18.2941091,16.7650909 C18.2941091,19.9016727 20.0727273,20.9454545 20.0727273,20.9454545 L18.3272727,20.9454545 C17.3637818,20.9454545 16.5818182,21.7274182 16.5818182,22.6909091 C16.5818182,23.6544 17.3637818,24.4363636 18.3272727,24.4363636 L19.2,24.4363636 L19.2,33.1636364 C17.7154909,33.3041455 16.5818182,34.5512727 16.5818182,36.0418909 L16.5818182,37.5272727 L32.2909091,37.5272727 L32.2909091,36.0418909 C32.2909091,34.5512727 31.1572364,33.3041455 29.6727273,33.1636364" id="Page-1"></path>
                </g>
                <g id="piece_bishop_w" opacity="0.81" transform="translate(547.500000, 592.500000) scale(1, -1) rotate(-9.000000) translate(-547.500000, -592.500000) translate(522.000000, 567.000000)">
                    <path d="M36.1636364,43.1181818 L36.1636364,43.1181818 L36.1636364,43.1181818 C36.1636364,44.3984783 35.125751,45.4363636 33.8454545,45.4363636 L18.0818182,45.4363636 L18.0818182,45.4363636 C16.8015217,45.4363636 15.7636364,44.3984783 15.7636364,43.1181818 L15.7636364,43.1181818 L15.7636364,43.1181818 C15.7636364,41.8378854 16.8015217,40.8 18.0818182,40.8 L33.8454545,40.8 L33.8454545,40.8 C35.125751,40.8 36.1636364,41.8378854 36.1636364,43.1181818 Z" id="Path"></path>
                    <path d="M31.5272727,35.2363636 L31.5272727,25.9636364 L32.4545455,25.9636364 C33.4782545,25.9636364 34.3090909,25.1328 34.3090909,24.1090909 C34.3090909,23.0853818 33.4782545,22.2545455 32.4545455,22.2545455 L30.6,22.2545455 C30.6,22.2545455 32.4897818,21.1455273 32.4897818,17.8129091 C32.4897818,15.8776909 30.3190364,12.7166182 28.4811818,10.3882364 C29.2137273,9.88009091 29.6727273,9.15310909 29.6727273,8.34545455 C29.6727273,6.80896364 28.0119818,5.56363636 25.9636364,5.56363636 C23.9152909,5.56363636 22.2545455,6.80896364 22.2545455,8.34545455 C22.2545455,9.15310909 22.7135455,9.88009091 23.4460909,10.3882364 C21.6082364,12.7166182 19.4374909,15.8776909 19.4374909,17.8129091 C19.4374909,21.1455273 21.3272727,22.2545455 21.3272727,22.2545455 L19.4727273,22.2545455 C18.4490182,22.2545455 17.6181818,23.0853818 17.6181818,24.1090909 C17.6181818,25.1328 18.4490182,25.9636364 19.4727273,25.9636364 L20.4,25.9636364 L20.4,35.2363636 C18.8227091,35.3856545 17.6181818,36.7107273 17.6181818,38.2945091 L17.6181818,39.8727273 L34.3090909,39.8727273 L34.3090909,38.2945091 C34.3090909,36.7107273 33.1045636,35.3856545 31.5272727,35.2363636" id="Page-1"></path>
                </g>
                <g id="piece_bishop_w" opacity="0.84" transform="translate(559.000000, 339.000000) rotate(-194.000000) translate(-559.000000, -339.000000) translate(530.000000, 310.000000)">
                    <path d="M41.1272727,49.0363636 L41.1272727,49.0363636 L41.1272727,49.0363636 C41.1272727,50.4923871 39.9469325,51.6727273 38.4909091,51.6727273 L20.5636364,51.6727273 L20.5636364,51.6727273 C19.1076129,51.6727273 17.9272727,50.4923871 17.9272727,49.0363636 L17.9272727,49.0363636 L17.9272727,49.0363636 C17.9272727,47.5803402 19.1076129,46.4 20.5636364,46.4 L38.4909091,46.4 L38.4909091,46.4 C39.9469325,46.4 41.1272727,47.5803402 41.1272727,49.0363636 Z" id="Path"></path>
                    <path d="M35.8545455,40.0727273 L35.8545455,29.5272727 L36.9090909,29.5272727 C38.0733091,29.5272727 39.0181818,28.5824 39.0181818,27.4181818 C39.0181818,26.2539636 38.0733091,25.3090909 36.9090909,25.3090909 L34.8,25.3090909 C34.8,25.3090909 36.9491636,24.0478545 36.9491636,20.2578182 C36.9491636,18.0569818 34.4804727,14.4620364 32.3903636,11.8140727 C33.2234545,11.2361818 33.7454545,10.4094182 33.7454545,9.49090909 C33.7454545,7.74352727 31.8567636,6.32727273 29.5272727,6.32727273 C27.1977818,6.32727273 25.3090909,7.74352727 25.3090909,9.49090909 C25.3090909,10.4094182 25.8310909,11.2361818 26.6641818,11.8140727 C24.5740727,14.4620364 22.1053818,18.0569818 22.1053818,20.2578182 C22.1053818,24.0478545 24.2545455,25.3090909 24.2545455,25.3090909 L22.1454545,25.3090909 C20.9812364,25.3090909 20.0363636,26.2539636 20.0363636,27.4181818 C20.0363636,28.5824 20.9812364,29.5272727 22.1454545,29.5272727 L23.2,29.5272727 L23.2,40.0727273 C21.4062182,40.2425091 20.0363636,41.7494545 20.0363636,43.5506182 L20.0363636,45.3454545 L39.0181818,45.3454545 L39.0181818,43.5506182 C39.0181818,41.7494545 37.6483273,40.2425091 35.8545455,40.0727273" id="Page-1"></path>
                </g>
                <g id="piece_bishop_w" opacity="0.73" transform="translate(474.000000, 515.000000) scale(-1, 1) rotate(-187.000000) translate(-474.000000, -515.000000) translate(446.000000, 487.000000)">
                    <path d="M39.7090909,47.3454545 L39.7090909,47.3454545 L39.7090909,47.3454545 C39.7090909,48.7512703 38.5694521,49.8909091 37.1636364,49.8909091 L19.8545455,49.8909091 L19.8545455,49.8909091 C18.4487297,49.8909091 17.3090909,48.7512703 17.3090909,47.3454545 L17.3090909,47.3454545 L17.3090909,47.3454545 C17.3090909,45.9396388 18.4487297,44.8 19.8545455,44.8 L37.1636364,44.8 L37.1636364,44.8 C38.5694521,44.8 39.7090909,45.9396388 39.7090909,47.3454545 Z" id="Path"></path>
                    <path d="M34.6181818,38.6909091 L34.6181818,28.5090909 L35.6363636,28.5090909 C36.7604364,28.5090909 37.6727273,27.5968 37.6727273,26.4727273 C37.6727273,25.3486545 36.7604364,24.4363636 35.6363636,24.4363636 L33.6,24.4363636 C33.6,24.4363636 35.6750545,23.2186182 35.6750545,19.5592727 C35.6750545,17.4343273 33.2914909,13.9633455 31.2734545,11.4066909 C32.0778182,10.8487273 32.5818182,10.0504727 32.5818182,9.16363636 C32.5818182,7.47650909 30.7582545,6.10909091 28.5090909,6.10909091 C26.2599273,6.10909091 24.4363636,7.47650909 24.4363636,9.16363636 C24.4363636,10.0504727 24.9403636,10.8487273 25.7447273,11.4066909 C23.7266909,13.9633455 21.3431273,17.4343273 21.3431273,19.5592727 C21.3431273,23.2186182 23.4181818,24.4363636 23.4181818,24.4363636 L21.3818182,24.4363636 C20.2577455,24.4363636 19.3454545,25.3486545 19.3454545,26.4727273 C19.3454545,27.5968 20.2577455,28.5090909 21.3818182,28.5090909 L22.4,28.5090909 L22.4,38.6909091 C20.6680727,38.8548364 19.3454545,40.3098182 19.3454545,42.0488727 L19.3454545,43.7818182 L37.6727273,43.7818182 L37.6727273,42.0488727 C37.6727273,40.3098182 36.3501091,38.8548364 34.6181818,38.6909091" id="Page-1"></path>
                </g>
                <g id="piece_bishop_w" opacity="0.73" transform="translate(438.000000, 233.000000) scale(1, -1) rotate(-290.000000) translate(-438.000000, -233.000000) translate(412.000000, 207.000000)">
                    <path d="M36.8727273,43.9636364 L36.8727273,43.9636364 L36.8727273,43.9636364 C36.8727273,45.2690367 35.8144912,46.3272727 34.5090909,46.3272727 L18.4363636,46.3272727 L18.4363636,46.3272727 C17.1309633,46.3272727 16.0727273,45.2690367 16.0727273,43.9636364 L16.0727273,43.9636364 L16.0727273,43.9636364 C16.0727273,42.658236 17.1309633,41.6 18.4363636,41.6 L34.5090909,41.6 L34.5090909,41.6 C35.8144912,41.6 36.8727273,42.658236 36.8727273,43.9636364 Z" id="Path"></path>
                    <path d="M32.1454545,35.9272727 L32.1454545,26.4727273 L33.0909091,26.4727273 C34.1346909,26.4727273 34.9818182,25.6256 34.9818182,24.5818182 C34.9818182,23.5380364 34.1346909,22.6909091 33.0909091,22.6909091 L31.2,22.6909091 C31.2,22.6909091 33.1268364,21.5601455 33.1268364,18.1621818 C33.1268364,16.1890182 30.9135273,12.9659636 29.0396364,10.5919273 C29.7865455,10.0738182 30.2545455,9.33258182 30.2545455,8.50909091 C30.2545455,6.94247273 28.5612364,5.67272727 26.4727273,5.67272727 C24.3842182,5.67272727 22.6909091,6.94247273 22.6909091,8.50909091 C22.6909091,9.33258182 23.1589091,10.0738182 23.9058182,10.5919273 C22.0319273,12.9659636 19.8186182,16.1890182 19.8186182,18.1621818 C19.8186182,21.5601455 21.7454545,22.6909091 21.7454545,22.6909091 L19.8545455,22.6909091 C18.8107636,22.6909091 17.9636364,23.5380364 17.9636364,24.5818182 C17.9636364,25.6256 18.8107636,26.4727273 19.8545455,26.4727273 L20.8,26.4727273 L20.8,35.9272727 C19.1917818,36.0794909 17.9636364,37.4305455 17.9636364,39.0453818 L17.9636364,40.6545455 L34.9818182,40.6545455 L34.9818182,39.0453818 C34.9818182,37.4305455 33.7536727,36.0794909 32.1454545,35.9272727" id="Page-1"></path>
                </g>
                <g id="piece_bishop_w" opacity="0.78" transform="translate(268.000000, 403.000000) scale(1, -1) rotate(-279.000000) translate(-268.000000, -403.000000) translate(242.000000, 377.000000)">
                    <path d="M36.8727273,43.9636364 L36.8727273,43.9636364 L36.8727273,43.9636364 C36.8727273,45.2690367 35.8144912,46.3272727 34.5090909,46.3272727 L18.4363636,46.3272727 L18.4363636,46.3272727 C17.1309633,46.3272727 16.0727273,45.2690367 16.0727273,43.9636364 L16.0727273,43.9636364 L16.0727273,43.9636364 C16.0727273,42.658236 17.1309633,41.6 18.4363636,41.6 L34.5090909,41.6 L34.5090909,41.6 C35.8144912,41.6 36.8727273,42.658236 36.8727273,43.9636364 Z" id="Path"></path>
                    <path d="M32.1454545,35.9272727 L32.1454545,26.4727273 L33.0909091,26.4727273 C34.1346909,26.4727273 34.9818182,25.6256 34.9818182,24.5818182 C34.9818182,23.5380364 34.1346909,22.6909091 33.0909091,22.6909091 L31.2,22.6909091 C31.2,22.6909091 33.1268364,21.5601455 33.1268364,18.1621818 C33.1268364,16.1890182 30.9135273,12.9659636 29.0396364,10.5919273 C29.7865455,10.0738182 30.2545455,9.33258182 30.2545455,8.50909091 C30.2545455,6.94247273 28.5612364,5.67272727 26.4727273,5.67272727 C24.3842182,5.67272727 22.6909091,6.94247273 22.6909091,8.50909091 C22.6909091,9.33258182 23.1589091,10.0738182 23.9058182,10.5919273 C22.0319273,12.9659636 19.8186182,16.1890182 19.8186182,18.1621818 C19.8186182,21.5601455 21.7454545,22.6909091 21.7454545,22.6909091 L19.8545455,22.6909091 C18.8107636,22.6909091 17.9636364,23.5380364 17.9636364,24.5818182 C17.9636364,25.6256 18.8107636,26.4727273 19.8545455,26.4727273 L20.8,26.4727273 L20.8,35.9272727 C19.1917818,36.0794909 17.9636364,37.4305455 17.9636364,39.0453818 L17.9636364,40.6545455 L34.9818182,40.6545455 L34.9818182,39.0453818 C34.9818182,37.4305455 33.7536727,36.0794909 32.1454545,35.9272727" id="Page-1"></path>
                </g>
                <g id="piece_bishop_w" opacity="0.98" transform="translate(223.000000, 625.000000) scale(1, -1) rotate(-15.000000) translate(-223.000000, -625.000000) translate(194.000000, 596.000000)">
                    <path d="M41.1272727,49.0363636 L41.1272727,49.0363636 L41.1272727,49.0363636 C41.1272727,50.4923871 39.9469325,51.6727273 38.4909091,51.6727273 L20.5636364,51.6727273 L20.5636364,51.6727273 C19.1076129,51.6727273 17.9272727,50.4923871 17.9272727,49.0363636 L17.9272727,49.0363636 L17.9272727,49.0363636 C17.9272727,47.5803402 19.1076129,46.4 20.5636364,46.4 L38.4909091,46.4 L38.4909091,46.4 C39.9469325,46.4 41.1272727,47.5803402 41.1272727,49.0363636 Z" id="Path"></path>
                    <path d="M35.8545455,40.0727273 L35.8545455,29.5272727 L36.9090909,29.5272727 C38.0733091,29.5272727 39.0181818,28.5824 39.0181818,27.4181818 C39.0181818,26.2539636 38.0733091,25.3090909 36.9090909,25.3090909 L34.8,25.3090909 C34.8,25.3090909 36.9491636,24.0478545 36.9491636,20.2578182 C36.9491636,18.0569818 34.4804727,14.4620364 32.3903636,11.8140727 C33.2234545,11.2361818 33.7454545,10.4094182 33.7454545,9.49090909 C33.7454545,7.74352727 31.8567636,6.32727273 29.5272727,6.32727273 C27.1977818,6.32727273 25.3090909,7.74352727 25.3090909,9.49090909 C25.3090909,10.4094182 25.8310909,11.2361818 26.6641818,11.8140727 C24.5740727,14.4620364 22.1053818,18.0569818 22.1053818,20.2578182 C22.1053818,24.0478545 24.2545455,25.3090909 24.2545455,25.3090909 L22.1454545,25.3090909 C20.9812364,25.3090909 20.0363636,26.2539636 20.0363636,27.4181818 C20.0363636,28.5824 20.9812364,29.5272727 22.1454545,29.5272727 L23.2,29.5272727 L23.2,40.0727273 C21.4062182,40.2425091 20.0363636,41.7494545 20.0363636,43.5506182 L20.0363636,45.3454545 L39.0181818,45.3454545 L39.0181818,43.5506182 C39.0181818,41.7494545 37.6483273,40.2425091 35.8545455,40.0727273" id="Page-1"></path>
                </g>
                <g id="piece_queen_w" opacity="0.9" transform="translate(1057.000000, 180.000000) scale(-1, 1) rotate(-288.000000) translate(-1057.000000, -180.000000) translate(1028.000000, 151.000000)">
                    <path d="M48.549558,32.1814693 C48.549558,26.4577738 43.8930968,21.8013126 38.1694013,21.8013126 C37.4708293,21.8013126 36.7890613,21.872816 36.1290702,22.0058773 C37.1841301,24.3154176 37.8019394,27.1832668 37.8019394,30.315524 C37.8019394,33.2384154 37.2626637,35.9231338 36.3331205,38.1522542 L33.4861907,38.1522542 C34.5599409,36.0946046 35.2298773,33.3106046 35.2298773,30.315524 C35.2298773,24.1111959 32.3609993,18.8659039 28.96502,18.8659039 C25.5692121,18.8659039 22.7003341,24.113425 22.7003341,30.3175817 C22.7003341,33.3126622 23.3702705,36.0946046 24.4440207,38.1522542 L21.5976053,38.1522542 C20.6680621,35.9231338 20.128272,33.2385868 20.128272,30.315524 C20.128272,27.1745218 20.7495107,24.3030717 21.8098862,21.990102 C21.1814457,21.8700724 20.5338004,21.8033703 19.8710658,21.8033703 C14.1473703,21.8033703 9.49090909,26.4588027 9.49090909,32.1824982 C9.49090909,35.3766563 10.9502971,38.2369608 13.2270865,40.1425159 C13.1701582,40.3597694 13.144952,40.5859394 13.144952,40.8208544 L13.144952,41.6200798 C13.144952,43.1003873 14.3329017,44.3252033 15.8132092,44.3252033 L42.1171737,44.3252033 C43.5974812,44.3252033 44.6955802,43.1002158 44.6955802,41.6200798 L44.6955802,40.8208544 C44.6955802,40.6132033 44.7226726,40.4118965 44.6777472,40.2177916 C47.0068352,38.3125795 48.549558,35.4179808 48.549558,32.1814693 Z M29.0200621,9.49090909 C27.5308381,9.49090909 26.3193969,10.7023503 26.3193969,12.1915743 C26.3193969,13.6807982 27.5308381,14.8922395 29.0200621,14.8922395 C30.509286,14.8922395 31.7207273,13.6807982 31.7207273,12.1915743 C31.7207273,10.7023503 30.509286,9.49090909 29.0200621,9.49090909 Z" id="Shape" fill-rule="nonzero"></path>
                    <path d="M45.3454545,47.9818182 L45.3454545,47.9818182 L45.3454545,47.9818182 C45.3454545,49.4378416 44.1651143,50.6181818 42.7090909,50.6181818 L15.2909091,50.6181818 L15.2909091,50.6181818 C13.8348857,50.6181818 12.6545455,49.4378416 12.6545455,47.9818182 L12.6545455,47.9818182 L12.6545455,47.9818182 C12.6545455,46.5257948 13.8348857,45.3454545 15.2909091,45.3454545 L42.7090909,45.3454545 L42.7090909,45.3454545 C44.1651143,45.3454545 45.3454545,46.5257948 45.3454545,47.9818182 Z" id="Path" fill-rule="evenodd"></path>
                </g>
                <g id="piece_queen_w" opacity="0.76" transform="translate(1023.000000, 128.000000) scale(-1, 1) rotate(-130.000000) translate(-1023.000000, -128.000000) translate(994.000000, 99.000000)">
                    <path d="M48.549558,32.1814693 C48.549558,26.4577738 43.8930968,21.8013126 38.1694013,21.8013126 C37.4708293,21.8013126 36.7890613,21.872816 36.1290702,22.0058773 C37.1841301,24.3154176 37.8019394,27.1832668 37.8019394,30.315524 C37.8019394,33.2384154 37.2626637,35.9231338 36.3331205,38.1522542 L33.4861907,38.1522542 C34.5599409,36.0946046 35.2298773,33.3106046 35.2298773,30.315524 C35.2298773,24.1111959 32.3609993,18.8659039 28.96502,18.8659039 C25.5692121,18.8659039 22.7003341,24.113425 22.7003341,30.3175817 C22.7003341,33.3126622 23.3702705,36.0946046 24.4440207,38.1522542 L21.5976053,38.1522542 C20.6680621,35.9231338 20.128272,33.2385868 20.128272,30.315524 C20.128272,27.1745218 20.7495107,24.3030717 21.8098862,21.990102 C21.1814457,21.8700724 20.5338004,21.8033703 19.8710658,21.8033703 C14.1473703,21.8033703 9.49090909,26.4588027 9.49090909,32.1824982 C9.49090909,35.3766563 10.9502971,38.2369608 13.2270865,40.1425159 C13.1701582,40.3597694 13.144952,40.5859394 13.144952,40.8208544 L13.144952,41.6200798 C13.144952,43.1003873 14.3329017,44.3252033 15.8132092,44.3252033 L42.1171737,44.3252033 C43.5974812,44.3252033 44.6955802,43.1002158 44.6955802,41.6200798 L44.6955802,40.8208544 C44.6955802,40.6132033 44.7226726,40.4118965 44.6777472,40.2177916 C47.0068352,38.3125795 48.549558,35.4179808 48.549558,32.1814693 Z M29.0200621,9.49090909 C27.5308381,9.49090909 26.3193969,10.7023503 26.3193969,12.1915743 C26.3193969,13.6807982 27.5308381,14.8922395 29.0200621,14.8922395 C30.509286,14.8922395 31.7207273,13.6807982 31.7207273,12.1915743 C31.7207273,10.7023503 30.509286,9.49090909 29.0200621,9.49090909 Z" id="Shape" fill-rule="nonzero"></path>
                    <path d="M45.3454545,47.9818182 L45.3454545,47.9818182 L45.3454545,47.9818182 C45.3454545,49.4378416 44.1651143,50.6181818 42.7090909,50.6181818 L15.2909091,50.6181818 L15.2909091,50.6181818 C13.8348857,50.6181818 12.6545455,49.4378416 12.6545455,47.9818182 L12.6545455,47.9818182 L12.6545455,47.9818182 C12.6545455,46.5257948 13.8348857,45.3454545 15.2909091,45.3454545 L42.7090909,45.3454545 L42.7090909,45.3454545 C44.1651143,45.3454545 45.3454545,46.5257948 45.3454545,47.9818182 Z" id="Path" fill-rule="evenodd"></path>
                </g>
                <g id="piece_queen_w" opacity="0.96" transform="translate(750.000000, 578.000000) scale(-1, -1) rotate(-10.000000) translate(-750.000000, -578.000000) translate(722.000000, 550.000000)">
                    <path d="M46.8754353,31.0717635 C46.8754353,25.5454368 42.3795418,21.0495432 36.8532151,21.0495432 C36.1787317,21.0495432 35.520473,21.1185809 34.8832402,21.247054 C35.9019187,23.4769549 36.4984242,26.2459128 36.4984242,29.2701611 C36.4984242,32.0922631 35.9777443,34.684405 35.0802542,36.8366593 L32.3314945,36.8366593 C33.3682188,34.849963 34.015054,32.161963 34.015054,29.2701611 C34.015054,23.2797753 31.2451027,18.2153555 27.9662262,18.2153555 C24.6875152,18.2153555 21.9175639,23.2819276 21.9175639,29.2721478 C21.9175639,32.1639497 22.5643991,34.849963 23.6011234,36.8366593 L20.8528603,36.8366593 C19.9553703,34.684405 19.4341936,32.0924287 19.4341936,29.2701611 C19.4341936,26.2374693 20.0340103,23.4650347 21.0578211,21.2318226 C20.451051,21.115932 19.8257384,21.0515299 19.1858566,21.0515299 C13.6595299,21.0515299 9.16363636,25.5464302 9.16363636,31.0727568 C9.16363636,34.1567716 10.5727007,36.9184449 12.77098,38.7582912 C12.7160148,38.9680532 12.6916778,39.1864242 12.6916778,39.4132387 L12.6916778,40.1849047 C12.6916778,41.614167 13.8386637,42.796748 15.2679261,42.796748 L40.6648574,42.796748 C42.0941197,42.796748 43.1543533,41.6140015 43.1543533,40.1849047 L43.1543533,39.4132387 C43.1543533,39.212748 43.1805115,39.0183829 43.1371353,38.8309712 C45.3859098,36.991456 46.8754353,34.1966711 46.8754353,31.0717635 Z M28.0193703,9.16363636 C26.5814989,9.16363636 25.4118315,10.3333038 25.4118315,11.7711752 C25.4118315,13.2090466 26.5814989,14.378714 28.0193703,14.378714 C29.4572417,14.378714 30.6269091,13.2090466 30.6269091,11.7711752 C30.6269091,10.3333038 29.4572417,9.16363636 28.0193703,9.16363636 Z" id="Shape" fill-rule="nonzero"></path>
                    <path d="M43.7818182,46.3272727 L43.7818182,46.3272727 L43.7818182,46.3272727 C43.7818182,47.7330885 42.6421794,48.8727273 41.2363636,48.8727273 L14.7636364,48.8727273 L14.7636364,48.8727273 C13.3578206,48.8727273 12.2181818,47.7330885 12.2181818,46.3272727 L12.2181818,46.3272727 L12.2181818,46.3272727 C12.2181818,44.921457 13.3578206,43.7818182 14.7636364,43.7818182 L41.2363636,43.7818182 L41.2363636,43.7818182 C42.6421794,43.7818182 43.7818182,44.921457 43.7818182,46.3272727 Z" id="Path" fill-rule="evenodd"></path>
                </g>
                <g id="piece_queen_w" opacity="0.77" transform="translate(586.500000, 245.500000) scale(-1, -1) rotate(-154.000000) translate(-586.500000, -245.500000) translate(559.000000, 218.000000)">
                    <path d="M46.038374,30.5169106 C46.038374,25.0892683 41.6227642,20.6736585 36.195122,20.6736585 C35.5326829,20.6736585 34.8861789,20.7414634 34.2603252,20.8676423 C35.260813,23.0577236 35.8466667,25.7772358 35.8466667,28.7474797 C35.8466667,31.519187 35.3352846,34.0650407 34.4538211,36.1788618 L31.7541463,36.1788618 C32.7723577,34.2276423 33.4076423,31.5876423 33.4076423,28.7474797 C33.4076423,22.864065 30.6871545,17.8900813 27.4668293,17.8900813 C24.2466667,17.8900813 21.5261789,22.8661789 21.5261789,28.7494309 C21.5261789,31.5895935 22.1614634,34.2276423 23.1796748,36.1788618 L20.4804878,36.1788618 C19.5990244,34.0650407 19.0871545,31.5193496 19.0871545,28.7474797 C19.0871545,25.7689431 19.6762602,23.0460163 20.6817886,20.8526829 C20.0858537,20.7388618 19.4717073,20.6756098 18.843252,20.6756098 C13.4156098,20.6756098 9,25.0902439 9,30.5178862 C9,33.5468293 10.3839024,36.259187 12.5429268,38.0661789 C12.4889431,38.2721951 12.4650407,38.4866667 12.4650407,38.7094309 L12.4650407,39.4673171 C12.4650407,40.8710569 13.5915447,42.0325203 14.9952846,42.0325203 L39.9386992,42.0325203 C41.342439,42.0325203 42.3837398,40.8708943 42.3837398,39.4673171 L42.3837398,38.7094309 C42.3837398,38.5125203 42.4094309,38.321626 42.3668293,38.137561 C44.5754472,36.3308943 46.038374,33.5860163 46.038374,30.5169106 Z M27.5190244,9 C26.1068293,9 24.9580488,10.1487805 24.9580488,11.5609756 C24.9580488,12.9731707 26.1068293,14.1219512 27.5190244,14.1219512 C28.9312195,14.1219512 30.08,12.9731707 30.08,11.5609756 C30.08,10.1487805 28.9312195,9 27.5190244,9 Z" id="Shape" fill-rule="nonzero"></path>
                    <path d="M43,45.5 L43,45.5 L43,45.5 C43,46.8807119 41.8807119,48 40.5,48 L14.5,48 L14.5,48 C13.1192881,48 12,46.8807119 12,45.5 L12,45.5 L12,45.5 C12,44.1192881 13.1192881,43 14.5,43 L40.5,43 L40.5,43 C41.8807119,43 43,44.1192881 43,45.5 Z" id="Path" fill-rule="evenodd"></path>
                </g>
                <g id="piece_queen_w" opacity="0.87" transform="translate(189.000000, 436.000000) scale(-1, -1) rotate(-355.000000) translate(-189.000000, -436.000000) translate(164.000000, 411.000000)">
                    <path d="M41.8530673,27.742646 C41.8530673,22.8084257 37.8388766,18.794235 32.9046563,18.794235 C32.302439,18.794235 31.7147081,18.8558758 31.1457502,18.9705839 C32.0552846,20.9615669 32.5878788,23.4338507 32.5878788,26.1340724 C32.5878788,28.6538064 32.122986,30.9682188 31.3216556,32.8898744 L28.8674058,32.8898744 C29.7930525,31.1160384 30.3705839,28.7160384 30.3705839,26.1340724 C30.3705839,20.7855137 27.8974132,16.2637103 24.9698448,16.2637103 C22.0424242,16.2637103 19.5692535,20.7874353 19.5692535,26.1358463 C19.5692535,28.7178123 20.1467849,31.1160384 21.0724316,32.8898744 L18.6186253,32.8898744 C17.8172949,30.9682188 17.3519586,28.6539542 17.3519586,26.1340724 C17.3519586,23.4263119 17.8875092,20.9509239 18.801626,18.9569845 C18.259867,18.8535107 17.7015521,18.7960089 17.1302291,18.7960089 C12.1960089,18.7960089 8.18181818,22.8093126 8.18181818,27.7435329 C8.18181818,30.4971175 9.43991131,32.9628973 11.4026608,34.6056171 C11.3535846,34.7929047 11.3318551,34.9878788 11.3318551,35.1903917 L11.3318551,35.8793792 C11.3318551,37.1555063 12.3559497,38.2113821 13.6320769,38.2113821 L36.3079084,38.2113821 C37.5840355,38.2113821 38.5306726,37.1553585 38.5306726,35.8793792 L38.5306726,35.1903917 C38.5306726,35.0113821 38.5540281,34.8378418 38.5152993,34.67051 C40.5231338,33.0280857 41.8530673,30.5327421 41.8530673,27.742646 Z M25.0172949,8.18181818 C23.7334812,8.18181818 22.6891353,9.22616408 22.6891353,10.5099778 C22.6891353,11.7937916 23.7334812,12.8381375 25.0172949,12.8381375 C26.3011086,12.8381375 27.3454545,11.7937916 27.3454545,10.5099778 C27.3454545,9.22616408 26.3011086,8.18181818 25.0172949,8.18181818 Z" id="Shape" fill-rule="nonzero"></path>
                    <path d="M39.0909091,41.3636364 L39.0909091,41.3636364 L39.0909091,41.3636364 C39.0909091,42.618829 38.0733744,43.6363636 36.8181818,43.6363636 L13.1818182,43.6363636 L13.1818182,43.6363636 C11.9266256,43.6363636 10.9090909,42.618829 10.9090909,41.3636364 L10.9090909,41.3636364 L10.9090909,41.3636364 C10.9090909,40.1084438 11.9266256,39.0909091 13.1818182,39.0909091 L36.8181818,39.0909091 L36.8181818,39.0909091 C38.0733744,39.0909091 39.0909091,40.1084438 39.0909091,41.3636364 Z" id="Path" fill-rule="evenodd"></path>
                </g>
                <g id="piece_queen_w" opacity="0.8" transform="translate(173.241262, 159.342499) scale(-1, 1) rotate(-72.000000) translate(-173.241262, -159.342499) translate(139.241262, 125.342499)">
                    <path d="M56.9201715,37.7299985 C56.9201715,31.019459 51.4608721,25.5601596 44.7503326,25.5601596 C43.9313171,25.5601596 43.132003,25.6439911 42.3582203,25.7999941 C43.595187,28.507731 44.3195152,31.870037 44.3195152,35.5423385 C44.3195152,38.9691766 43.6872609,42.1167775 42.5974516,44.7302291 L39.2596718,44.7302291 C40.5185514,42.3178123 41.3039941,39.0538123 41.3039941,35.5423385 C41.3039941,28.2682986 37.9404819,22.118646 33.9589889,22.118646 C29.977697,22.118646 26.6141848,28.270912 26.6141848,35.5447509 C26.6141848,39.0562247 27.3996275,42.3178123 28.658507,44.7302291 L25.3213304,44.7302291 C24.2315211,42.1167775 23.5986637,38.9693777 23.5986637,35.5423385 C23.5986637,31.8597842 24.3270126,28.4932565 25.5702114,25.7814989 C24.8334191,25.6407746 24.0741109,25.5625721 23.2971116,25.5625721 C16.5865721,25.5625721 11.1272727,31.0206652 11.1272727,37.7312047 C11.1272727,41.4760798 12.8382794,44.8295403 15.5076186,47.0636393 C15.4408751,47.3183503 15.411323,47.5835152 15.411323,47.8589327 L15.411323,48.7959557 C15.411323,50.5314885 16.8040916,51.9674797 18.5396245,51.9674797 L49.3787554,51.9674797 C51.1142882,51.9674797 52.4017147,50.5312875 52.4017147,48.7959557 L52.4017147,47.8589327 C52.4017147,47.6154797 52.4334782,47.3794649 52.3808071,47.1518936 C55.1114619,44.9181966 56.9201715,41.5245292 56.9201715,37.7299985 Z M34.0235211,11.1272727 C32.2775344,11.1272727 30.8572239,12.5475831 30.8572239,14.2935698 C30.8572239,16.0395565 32.2775344,17.459867 34.0235211,17.459867 C35.7695078,17.459867 37.1898182,16.0395565 37.1898182,14.2935698 C37.1898182,12.5475831 35.7695078,11.1272727 34.0235211,11.1272727 Z" id="Shape" fill-rule="nonzero"></path>
                    <path d="M53.1636364,56.2545455 L53.1636364,56.2545455 L53.1636364,56.2545455 C53.1636364,57.9616074 51.7797892,59.3454545 50.0727273,59.3454545 L17.9272727,59.3454545 L17.9272727,59.3454545 C16.2202108,59.3454545 14.8363636,57.9616074 14.8363636,56.2545455 L14.8363636,56.2545455 L14.8363636,56.2545455 C14.8363636,54.5474835 16.2202108,53.1636364 17.9272727,53.1636364 L50.0727273,53.1636364 L50.0727273,53.1636364 C51.7797892,53.1636364 53.1636364,54.5474835 53.1636364,56.2545455 Z" id="Path" fill-rule="evenodd"></path>
                </g>
                <g id="piece_crown_w" opacity="0.93" transform="translate(1197.000000, 578.000000) scale(-1, 1) rotate(-45.000000) translate(-1197.000000, -578.000000) translate(1166.000000, 547.000000)">
                    <path d="M22.3370418,17.5550945 C23.7618379,17.5550945 24.9210535,16.3987789 24.9210535,14.9775473 C24.9210535,13.5563156 23.7618379,12.4 22.3370418,12.4 C20.9122457,12.4 19.7530301,13.5563156 19.7530301,14.9775473 C19.7530301,16.3987789 20.9122457,17.5550945 22.3370418,17.5550945 Z M40.7679383,17.5550945 C42.1927344,17.5550945 43.35195,16.3987789 43.35195,14.9775473 C43.35195,13.5563156 42.1927344,12.4 40.7679383,12.4 C39.3431423,12.4 38.1839266,13.5563156 38.1839266,14.9775473 C38.1839266,16.3987789 39.3431423,17.5550945 40.7679383,17.5550945 Z M53.7573321,15.7045343 C52.3200732,15.7045343 51.1510278,16.8706551 51.1510278,18.3043184 C51.1510278,19.7379817 52.3200732,20.9041025 53.7573321,20.9041025 C55.1945909,20.9041025 56.3636364,19.7379817 56.3636364,18.3043184 C56.3636364,16.8706551 55.1944154,15.7045343 53.7573321,15.7045343 Z M11.9314842,18.1292252 C11.9314842,16.7079935 10.7722686,15.5516779 9.34747252,15.5516779 C7.92267646,15.5516779 6.76363636,16.7079935 6.76363636,18.1292252 C6.76363636,19.5504568 7.92285199,20.7067724 9.34764806,20.7067724 C10.7724441,20.7067724 11.9314842,19.5504568 11.9314842,18.1292252 Z M52.3550041,21.6781896 C51.7599495,21.3747531 51.0311392,21.5638537 50.6600638,22.1183739 L41.4679613,35.8607402 L41.3988016,19.9384634 C41.3959931,19.3293141 40.9741888,18.8022835 40.3793097,18.6648353 C39.7847816,18.5275622 39.1732269,18.8157657 38.9023805,19.3615312 L31.4810484,34.3190444 L24.0600673,19.3643327 C23.7893964,18.8185672 23.1767885,18.5300135 22.5831381,18.6676368 C21.988259,18.805085 21.5662793,19.3322907 21.5636463,19.9412649 L21.4944865,35.8661681 L12.3025596,22.1183739 C11.9320108,21.5638537 11.203025,21.3740527 10.6077948,21.6778394 C10.0125646,21.9816261 9.74031392,22.681999 9.97429854,23.3067316 L18.6631498,46.4920502 C18.8555332,47.0054235 19.3470238,47.3454545 19.8962645,47.3454545 L43.0665344,47.3454545 C43.6157751,47.3454545 44.1074412,47.0054235 44.2996492,46.4920502 L52.9885004,23.3070818 C53.222485,22.6825243 52.9502343,21.9821514 52.3550041,21.6781896 Z" id="Shape" fill-rule="nonzero"></path>
                    <path d="M47.3454545,51.2909091 L47.3454545,51.2909091 L47.3454545,51.2909091 C47.3454545,52.8473479 46.0837116,54.1090909 44.5272727,54.1090909 L18.6,54.1090909 L18.6,54.1090909 C17.0435612,54.1090909 15.7818182,52.8473479 15.7818182,51.2909091 L15.7818182,51.2909091 L15.7818182,51.2909091 C15.7818182,49.7344703 17.0435612,48.4727273 18.6,48.4727273 L44.5272727,48.4727273 L44.5272727,48.4727273 C46.0837116,48.4727273 47.3454545,49.7344703 47.3454545,51.2909091 Z" id="Path" fill-rule="evenodd"></path>
                </g>
                <g id="piece_crown_w" opacity="0.83" transform="translate(811.500000, 476.500000) rotate(-189.000000) translate(-811.500000, -476.500000) translate(788.000000, 453.000000)">
                    <path d="M16.9329188,13.3078942 C18.0130061,13.3078942 18.8917664,12.4313324 18.8917664,11.3539471 C18.8917664,10.2765618 18.0130061,9.4 16.9329188,9.4 C15.8528314,9.4 14.9740712,10.2765618 14.9740712,11.3539471 C14.9740712,12.4313324 15.8528314,13.3078942 16.9329188,13.3078942 Z M30.9047274,13.3078942 C31.9848148,13.3078942 32.863575,12.4313324 32.863575,11.3539471 C32.863575,10.2765618 31.9848148,9.4 30.9047274,9.4 C29.8246401,9.4 28.9458799,10.2765618 28.9458799,11.3539471 C28.9458799,12.4313324 29.8246401,13.3078942 30.9047274,13.3078942 Z M40.7515259,11.9050502 C39.661991,11.9050502 38.7757791,12.789045 38.7757791,13.8758543 C38.7757791,14.9626635 39.661991,15.8466583 40.7515259,15.8466583 C41.8410609,15.8466583 42.7272727,14.9626635 42.7272727,13.8758543 C42.7272727,12.789045 41.8409278,11.9050502 40.7515259,11.9050502 Z M9.04483481,13.7431223 C9.04483481,12.665737 8.16607458,11.7891752 7.08598724,11.7891752 C6.00589989,11.7891752 5.12727273,12.665737 5.12727273,13.7431223 C5.12727273,14.8205076 6.00603296,15.6970694 7.0861203,15.6970694 C8.16620764,15.6970694 9.04483481,14.8205076 9.04483481,13.7431223 Z M39.6884709,16.4334663 C39.2373811,16.2034418 38.6848958,16.3467923 38.4035967,16.7671544 L31.43539,27.1847547 L31.3829625,15.1146416 C31.3808335,14.6528671 31.0610786,14.2533439 30.6101219,14.1491494 C30.1594312,14.0450875 29.6958333,14.2635643 29.4905143,14.6772898 L23.8646657,26.0160498 L18.2390833,14.6794135 C18.0338973,14.265688 17.569501,14.0469458 17.1194757,14.1512731 C16.6685189,14.2554677 16.3486311,14.6551236 16.3466351,15.1167653 L16.2942075,27.1888694 L9.32613389,16.7671544 C9.045234,16.3467923 8.49261571,16.2029109 8.04139282,16.4332008 C7.59016993,16.6634908 7.38378636,17.1944186 7.5611618,17.6680062 L14.1478716,35.2439735 C14.2937107,35.6331436 14.6662922,35.8909091 15.0826521,35.8909091 L32.6472116,35.8909091 C33.0635715,35.8909091 33.4362861,35.6331436 33.5819921,35.2439735 L40.1687019,17.6682717 C40.3460773,17.1948168 40.1396938,16.663889 39.6884709,16.4334663 Z" id="Shape" fill-rule="nonzero"></path>
                    <path d="M35.8909091,38.8818182 L35.8909091,38.8818182 L35.8909091,38.8818182 C35.8909091,40.0616992 34.9344265,41.0181818 33.7545455,41.0181818 L14.1,41.0181818 L14.1,41.0181818 C12.9201189,41.0181818 11.9636364,40.0616992 11.9636364,38.8818182 L11.9636364,38.8818182 L11.9636364,38.8818182 C11.9636364,37.7019371 12.9201189,36.7454545 14.1,36.7454545 L33.7545455,36.7454545 L33.7545455,36.7454545 C34.9344265,36.7454545 35.8909091,37.7019371 35.8909091,38.8818182 Z" id="Path" fill-rule="evenodd"></path>
                </g>
                <g id="piece_crown_w" opacity="0.93" transform="translate(809.000000, 244.000000) rotate(-203.000000) translate(-809.000000, -244.000000) translate(784.000000, 219.000000)">
                    <path d="M18.0137434,14.1573343 C19.1627725,14.1573343 20.0976238,13.2248217 20.0976238,12.0786671 C20.0976238,10.9325126 19.1627725,10 18.0137434,10 C16.8647143,10 15.929863,10.9325126 15.929863,12.0786671 C15.929863,13.2248217 16.8647143,14.1573343 18.0137434,14.1573343 Z M32.8773696,14.1573343 C34.0263987,14.1573343 34.96125,13.2248217 34.96125,12.0786671 C34.96125,10.9325126 34.0263987,10 32.8773696,10 C31.7283405,10 30.7934892,10.9325126 30.7934892,12.0786671 C30.7934892,13.2248217 31.7283405,14.1573343 32.8773696,14.1573343 Z M43.3526871,12.664947 C42.1936074,12.664947 41.2508288,13.605367 41.2508288,14.7615471 C41.2508288,15.9177271 42.1936074,16.8581472 43.3526871,16.8581472 C44.5117669,16.8581472 45.4545455,15.9177271 45.4545455,14.7615471 C45.4545455,13.605367 44.5116253,12.664947 43.3526871,12.664947 Z M9.62216469,14.6203429 C9.62216469,13.4741883 8.68731338,12.5416757 7.53828429,12.5416757 C6.38925521,12.5416757 5.45454545,13.4741883 5.45454545,14.6203429 C5.45454545,15.7664974 6.38939677,16.69901 7.53842585,16.69901 C8.68745494,16.69901 9.62216469,15.7664974 9.62216469,14.6203429 Z M42.2217775,17.482411 C41.7418947,17.2377041 41.1541445,17.3902046 40.8548901,17.8373983 L33.4419043,28.9199518 L33.3861303,16.079406 C33.3838654,15.5881565 33.0437007,15.1631319 32.5639594,15.0522866 C32.0845013,14.9415825 31.591312,15.1740046 31.3728875,15.6141381 L25.3879423,27.6766487 L19.4032801,15.6163974 C19.1849971,15.1762638 18.6909585,14.9435593 18.2122082,15.0545458 C17.732467,15.1653911 17.3921607,15.590557 17.3900373,16.0816652 L17.3342633,28.9243291 L9.92141903,17.8373983 C9.62258937,17.3902046 9.03469756,17.2371393 8.55467321,17.4821286 C8.07464886,17.7271179 7.85509187,18.2919347 8.04378914,18.7957513 L15.0509272,37.4935889 C15.2060752,37.9075996 15.6024385,38.1818182 16.0453746,38.1818182 L34.7310761,38.1818182 C35.1740122,38.1818182 35.5705171,37.9075996 35.7255235,37.4935889 L42.7326616,18.7960337 C42.9213589,18.2923583 42.7018019,17.7275415 42.2217775,17.482411 Z" id="Shape" fill-rule="nonzero"></path>
                    <path d="M38.1818182,41.3636364 L38.1818182,41.3636364 L38.1818182,41.3636364 C38.1818182,42.618829 37.1642835,43.6363636 35.9090909,43.6363636 L15,43.6363636 L15,43.6363636 C13.7448074,43.6363636 12.7272727,42.618829 12.7272727,41.3636364 L12.7272727,41.3636364 L12.7272727,41.3636364 C12.7272727,40.1084438 13.7448074,39.0909091 15,39.0909091 L35.9090909,39.0909091 L35.9090909,39.0909091 C37.1642835,39.0909091 38.1818182,40.1084438 38.1818182,41.3636364 Z" id="Path" fill-rule="evenodd"></path>
                </g>
                <g id="piece_crown_w" opacity="0.81" transform="translate(651.500000, 175.500000) scale(-1, -1) rotate(-206.000000) translate(-651.500000, -175.500000) translate(628.000000, 152.000000)">
                    <path d="M16.9329188,13.3078942 C18.0130061,13.3078942 18.8917664,12.4313324 18.8917664,11.3539471 C18.8917664,10.2765618 18.0130061,9.4 16.9329188,9.4 C15.8528314,9.4 14.9740712,10.2765618 14.9740712,11.3539471 C14.9740712,12.4313324 15.8528314,13.3078942 16.9329188,13.3078942 Z M30.9047274,13.3078942 C31.9848148,13.3078942 32.863575,12.4313324 32.863575,11.3539471 C32.863575,10.2765618 31.9848148,9.4 30.9047274,9.4 C29.8246401,9.4 28.9458799,10.2765618 28.9458799,11.3539471 C28.9458799,12.4313324 29.8246401,13.3078942 30.9047274,13.3078942 Z M40.7515259,11.9050502 C39.661991,11.9050502 38.7757791,12.789045 38.7757791,13.8758543 C38.7757791,14.9626635 39.661991,15.8466583 40.7515259,15.8466583 C41.8410609,15.8466583 42.7272727,14.9626635 42.7272727,13.8758543 C42.7272727,12.789045 41.8409278,11.9050502 40.7515259,11.9050502 Z M9.04483481,13.7431223 C9.04483481,12.665737 8.16607458,11.7891752 7.08598724,11.7891752 C6.00589989,11.7891752 5.12727273,12.665737 5.12727273,13.7431223 C5.12727273,14.8205076 6.00603296,15.6970694 7.0861203,15.6970694 C8.16620764,15.6970694 9.04483481,14.8205076 9.04483481,13.7431223 Z M39.6884709,16.4334663 C39.2373811,16.2034418 38.6848958,16.3467923 38.4035967,16.7671544 L31.43539,27.1847547 L31.3829625,15.1146416 C31.3808335,14.6528671 31.0610786,14.2533439 30.6101219,14.1491494 C30.1594312,14.0450875 29.6958333,14.2635643 29.4905143,14.6772898 L23.8646657,26.0160498 L18.2390833,14.6794135 C18.0338973,14.265688 17.569501,14.0469458 17.1194757,14.1512731 C16.6685189,14.2554677 16.3486311,14.6551236 16.3466351,15.1167653 L16.2942075,27.1888694 L9.32613389,16.7671544 C9.045234,16.3467923 8.49261571,16.2029109 8.04139282,16.4332008 C7.59016993,16.6634908 7.38378636,17.1944186 7.5611618,17.6680062 L14.1478716,35.2439735 C14.2937107,35.6331436 14.6662922,35.8909091 15.0826521,35.8909091 L32.6472116,35.8909091 C33.0635715,35.8909091 33.4362861,35.6331436 33.5819921,35.2439735 L40.1687019,17.6682717 C40.3460773,17.1948168 40.1396938,16.663889 39.6884709,16.4334663 Z" id="Shape" fill-rule="nonzero"></path>
                    <path d="M35.8909091,38.8818182 L35.8909091,38.8818182 L35.8909091,38.8818182 C35.8909091,40.0616992 34.9344265,41.0181818 33.7545455,41.0181818 L14.1,41.0181818 L14.1,41.0181818 C12.9201189,41.0181818 11.9636364,40.0616992 11.9636364,38.8818182 L11.9636364,38.8818182 L11.9636364,38.8818182 C11.9636364,37.7019371 12.9201189,36.7454545 14.1,36.7454545 L33.7545455,36.7454545 L33.7545455,36.7454545 C34.9344265,36.7454545 35.8909091,37.7019371 35.8909091,38.8818182 Z" id="Path" fill-rule="evenodd"></path>
                </g>
                <g id="piece_crown_w" transform="translate(596.500000, 702.500000) scale(-1, -1) rotate(-192.000000) translate(-596.500000, -702.500000) translate(565.000000, 671.000000)">
                    <path d="M22.6973167,17.8382412 C24.1450933,17.8382412 25.323006,16.6632753 25.323006,15.2191206 C25.323006,13.7749659 24.1450933,12.6 22.6973167,12.6 C21.24954,12.6 20.0716274,13.7749659 20.0716274,15.2191206 C20.0716274,16.6632753 21.24954,17.8382412 22.6973167,17.8382412 Z M41.4254857,17.8382412 C42.8732624,17.8382412 44.051175,16.6632753 44.051175,15.2191206 C44.051175,13.7749659 42.8732624,12.6 41.4254857,12.6 C39.9777091,12.6 38.7997964,13.7749659 38.7997964,15.2191206 C38.7997964,16.6632753 39.9777091,17.8382412 41.4254857,17.8382412 Z M54.6243858,15.9578332 C53.1639453,15.9578332 51.9760443,17.1427625 51.9760443,18.5995493 C51.9760443,20.0563362 53.1639453,21.2412654 54.6243858,21.2412654 C56.0848263,21.2412654 57.2727273,20.0563362 57.2727273,18.5995493 C57.2727273,17.1427625 56.0846479,15.9578332 54.6243858,15.9578332 Z M12.1239275,18.421632 C12.1239275,16.9774773 10.9460149,15.8025114 9.49823821,15.8025114 C8.05046156,15.8025114 6.87272727,16.9774773 6.87272727,18.421632 C6.87272727,19.8657868 8.05063992,21.0407526 9.49841657,21.0407526 C10.9461932,21.0407526 12.1239275,19.8657868 12.1239275,18.421632 Z M53.1994397,22.0278378 C52.5947874,21.7195071 51.8542221,21.9116578 51.4771616,22.4751219 L42.1367994,36.4391393 L42.0665242,20.2600515 C42.0636704,19.6410772 41.6350628,19.1055461 41.0305889,18.9658811 C40.4264717,18.8263939 39.8050532,19.1192458 39.5298383,19.673814 L31.9888072,34.8725774 L24.4481329,19.6766607 C24.1730964,19.1220924 23.5506077,18.8288847 22.9473823,18.9687277 C22.3429084,19.1083928 21.9141225,19.6441018 21.911447,20.2628982 L21.8411718,36.4446547 L12.500988,22.4751219 C12.1244626,21.9116578 11.3837189,21.7187955 10.7788882,22.027482 C10.1740576,22.3361685 9.89741576,23.0478377 10.1351743,23.6826466 L18.9641683,47.241922 C19.1596547,47.7635755 19.6590726,48.1090909 20.217172,48.1090909 L43.7611559,48.1090909 C44.3192554,48.1090909 44.8188516,47.7635755 45.0141596,47.241922 L53.8431536,23.6830025 C54.0809122,23.0483715 53.8042704,22.3367023 53.1994397,22.0278378 Z" id="Shape" fill-rule="nonzero"></path>
                    <path d="M48.1090909,52.1181818 L48.1090909,52.1181818 L48.1090909,52.1181818 C48.1090909,53.6997245 46.8269972,54.9818182 45.2454545,54.9818182 L18.9,54.9818182 L18.9,54.9818182 C17.3184573,54.9818182 16.0363636,53.6997245 16.0363636,52.1181818 L16.0363636,52.1181818 L16.0363636,52.1181818 C16.0363636,50.5366391 17.3184573,49.2545455 18.9,49.2545455 L45.2454545,49.2545455 L45.2454545,49.2545455 C46.8269972,49.2545455 48.1090909,50.5366391 48.1090909,52.1181818 Z" id="Path" fill-rule="evenodd"></path>
                </g>
                <g id="piece_crown_w" opacity="0.73" transform="translate(341.000000, 93.000000) scale(-1, 1) rotate(-105.000000) translate(-341.000000, -93.000000) translate(307.000000, 59.000000)">
                    <path d="M24.498691,19.2539746 C26.0613706,19.2539746 27.3327683,17.9857575 27.3327683,16.4269873 C27.3327683,14.8682171 26.0613706,13.6 24.498691,13.6 C22.9360114,13.6 21.6646137,14.8682171 21.6646137,16.4269873 C21.6646137,17.9857575 22.9360114,19.2539746 24.498691,19.2539746 Z M44.7132227,19.2539746 C46.2759022,19.2539746 47.5473,17.9857575 47.5473,16.4269873 C47.5473,14.8682171 46.2759022,13.6 44.7132227,13.6 C43.1505431,13.6 41.8791453,14.8682171 41.8791453,16.4269873 C41.8791453,17.9857575 43.1505431,19.2539746 44.7132227,19.2539746 Z M58.9596545,17.2243279 C57.3833061,17.2243279 56.1011272,18.5032992 56.1011272,20.075704 C56.1011272,21.6481089 57.3833061,22.9270801 58.9596545,22.9270801 C60.536003,22.9270801 61.8181818,21.6481089 61.8181818,20.075704 C61.8181818,18.5032992 60.5358104,17.2243279 58.9596545,17.2243279 Z M13.086144,19.8836663 C13.086144,18.3248961 11.8147462,17.056679 10.2520666,17.056679 C8.68938708,17.056679 7.41818182,18.3248961 7.41818182,19.8836663 C7.41818182,21.4424365 8.6895796,22.7106536 10.2522592,22.7106536 C11.8149387,22.7106536 13.086144,21.4424365 13.086144,19.8836663 Z M57.4216174,23.7760789 C56.7689768,23.4432775 55.9696365,23.6506783 55.5626506,24.2588617 L45.4809898,39.3311344 L45.4051372,21.8679921 C45.4020569,21.1998929 44.9394329,20.6218593 44.2869848,20.4711097 C43.6349218,20.3205521 42.9641844,20.6366462 42.667127,21.2352278 L34.5276015,37.6402423 L26.3884609,21.2383004 C26.0915961,20.6397188 25.4197036,20.3232407 24.7686031,20.4741823 C24.1161551,20.6249319 23.6533385,21.2031575 23.6504508,21.8710647 L23.5745981,39.3370876 L13.4931299,24.2588617 C13.0867215,23.6506783 12.2871887,23.4425094 11.6343556,23.7756948 C10.9815225,24.1088803 10.6829249,24.8770312 10.9395532,25.5622218 L20.469261,50.9912809 C20.6802622,51.5543355 21.2193164,51.9272727 21.8217095,51.9272727 L47.2342636,51.9272727 C47.8366566,51.9272727 48.3759033,51.5543355 48.586712,50.9912809 L58.1164198,25.5626058 C58.3730481,24.8776073 58.0744506,24.1094564 57.4216174,23.7760789 Z" id="Shape" fill-rule="nonzero"></path>
                    <path d="M51.9272727,56.2545455 L51.9272727,56.2545455 L51.9272727,56.2545455 C51.9272727,57.9616074 50.5434256,59.3454545 48.8363636,59.3454545 L20.4,59.3454545 L20.4,59.3454545 C18.692938,59.3454545 17.3090909,57.9616074 17.3090909,56.2545455 L17.3090909,56.2545455 L17.3090909,56.2545455 C17.3090909,54.5474835 18.692938,53.1636364 20.4,53.1636364 L48.8363636,53.1636364 L48.8363636,53.1636364 C50.5434256,53.1636364 51.9272727,54.5474835 51.9272727,56.2545455 Z" id="Path" fill-rule="evenodd"></path>
                </g>
                <g id="piece_pawn_w" opacity="0.95" transform="translate(1187.500000, 105.500000) scale(-1, -1) rotate(-176.000000) translate(-1187.500000, -105.500000) translate(1155.000000, 73.000000)">
                    <path d="M46.0909091,53.7727273 L46.0909091,53.7727273 L46.0909091,53.7727273 C46.0909091,55.4044777 44.768114,56.7272727 43.1363636,56.7272727 L23.0454545,56.7272727 L23.0454545,56.7272727 C21.4137041,56.7272727 20.0909091,55.4044777 20.0909091,53.7727273 L20.0909091,53.7727273 L20.0909091,53.7727273 C20.0909091,52.1409769 21.4137041,50.8181818 23.0454545,50.8181818 L43.1363636,50.8181818 L43.1363636,50.8181818 C44.768114,50.8181818 46.0909091,52.1409769 46.0909091,53.7727273 Z" id="Path"></path>
                    <path d="M37.3544205,30.7272727 L37.8181818,30.7272727 L37.8181818,30.7272727 C39.1235821,30.7272727 40.1818182,31.7855088 40.1818182,33.0909091 C40.1818182,34.28376 39.2981942,35.2702296 38.1497981,35.4314658 C42.1458254,37.3676039 44.9090909,41.5262673 44.9090909,46.3441558 C44.9090909,47.4854806 44.754021,48.5898107 44.4642277,49.6363636 L21.7175905,49.6363636 C21.4277972,48.5898107 21.2727273,47.4854806 21.2727273,46.3441558 C21.2727273,41.5262673 24.0359928,37.3676039 28.03202,35.4314658 C26.883624,35.2702296 26,34.28376 26,33.0909091 C26,31.7855088 27.058236,30.7272727 28.3636364,30.7272727 L28.8273976,30.7272727 C26.4249608,29.279667 24.8181818,26.645657 24.8181818,23.6363636 C24.8181818,19.0674625 28.522008,15.3636364 33.0909091,15.3636364 C37.6598102,15.3636364 41.3636364,19.0674625 41.3636364,23.6363636 C41.3636364,26.645657 39.7568574,29.279667 37.3544205,30.7272727 Z" id="Combined-Shape"></path>
                </g>
                <g id="piece_pawn_w" opacity="0.86" transform="translate(1072.500000, 116.500000) scale(-1, -1) rotate(-201.000000) translate(-1072.500000, -116.500000) translate(1049.000000, 93.000000)">
                    <path d="M33.3272727,38.8818182 L33.3272727,38.8818182 L33.3272727,38.8818182 C33.3272727,40.0616992 32.3707901,41.0181818 31.1909091,41.0181818 L16.6636364,41.0181818 L16.6636364,41.0181818 C15.4837553,41.0181818 14.5272727,40.0616992 14.5272727,38.8818182 L14.5272727,38.8818182 L14.5272727,38.8818182 C14.5272727,37.7019371 15.4837553,36.7454545 16.6636364,36.7454545 L31.1909091,36.7454545 L31.1909091,36.7454545 C32.3707901,36.7454545 33.3272727,37.7019371 33.3272727,38.8818182 Z" id="Path"></path>
                    <path d="M27.0101195,22.2181818 L27.3454545,22.2181818 C28.2893594,22.2181818 29.0545455,22.9833679 29.0545455,23.9272727 C29.0545455,24.7897957 28.4156174,25.5030891 27.5852387,25.6196753 C30.4746738,27.019652 32.4727273,30.0266856 32.4727273,33.5103896 C32.4727273,34.3356552 32.3605998,35.1341708 32.151057,35.8909091 L15.7034885,35.8909091 C15.4939457,35.1341708 15.3818182,34.3356552 15.3818182,33.5103896 C15.3818182,30.0266856 17.3798717,27.019652 20.2693068,25.6196753 C19.4389281,25.5030891 18.8,24.7897957 18.8,23.9272727 C18.8,22.9833679 19.5651861,22.2181818 20.5090909,22.2181818 L20.844426,22.2181818 C19.1072793,21.1714515 17.9454545,19.2668597 17.9454545,17.0909091 C17.9454545,13.7872421 20.6236058,11.1090909 23.9272727,11.1090909 C27.2309397,11.1090909 29.9090909,13.7872421 29.9090909,17.0909091 C29.9090909,19.2668597 28.7472661,21.1714515 27.0101195,22.2181818 Z" id="Combined-Shape"></path>
                </g>
                <g id="piece_pawn_w" opacity="0.93" transform="translate(983.000000, 405.000000) scale(-1, 1) rotate(-211.000000) translate(-983.000000, -405.000000) translate(946.000000, 368.000000)">
                    <path d="M52.4727273,61.2181818 L52.4727273,61.2181818 L52.4727273,61.2181818 C52.4727273,63.0758669 50.966776,64.5818182 49.1090909,64.5818182 L26.2363636,64.5818182 L26.2363636,64.5818182 C24.3786786,64.5818182 22.8727273,63.0758669 22.8727273,61.2181818 L22.8727273,61.2181818 L22.8727273,61.2181818 C22.8727273,59.3604968 24.3786786,57.8545455 26.2363636,57.8545455 L49.1090909,57.8545455 L49.1090909,57.8545455 C50.966776,57.8545455 52.4727273,59.3604968 52.4727273,61.2181818 Z" id="Path"></path>
                    <path d="M42.5265711,34.9818182 L43.0545455,34.9818182 C44.5406935,34.9818182 45.7454545,36.1865792 45.7454545,37.6727273 C45.7454545,39.0307422 44.7394826,40.1537998 43.4320779,40.3373611 C47.9814013,42.5415798 51.1272727,47.2760582 51.1272727,52.761039 C51.1272727,54.0603933 50.9507316,55.3176307 50.6208131,56.5090909 L24.7246415,56.5090909 C24.394723,55.3176307 24.2181818,54.0603933 24.2181818,52.761039 C24.2181818,47.2760582 27.3640533,42.5415798 31.9133767,40.3373611 C30.6059719,40.1537998 29.6,39.0307422 29.6,37.6727273 L29.6,37.6727273 L29.6,37.6727273 C29.6,36.1865792 30.804761,34.9818182 32.2909091,34.9818182 L32.8188835,34.9818182 C30.0838015,33.3337748 28.2545455,30.3350556 28.2545455,26.9090909 C28.2545455,21.7075727 32.4712091,17.4909091 37.6727273,17.4909091 C42.8742455,17.4909091 47.0909091,21.7075727 47.0909091,26.9090909 C47.0909091,30.3350556 45.2616531,33.3337748 42.5265711,34.9818182 Z" id="Combined-Shape"></path>
                </g>
                <g id="piece_pawn_w" opacity="0.96" transform="translate(991.000000, 267.000000) scale(1, -1) rotate(-350.000000) translate(-991.000000, -267.000000) translate(959.000000, 235.000000)">
                    <path d="M45.3818182,52.9454545 L45.3818182,52.9454545 L45.3818182,52.9454545 C45.3818182,54.5521011 44.0793738,55.8545455 42.4727273,55.8545455 L22.6909091,55.8545455 L22.6909091,55.8545455 C21.0842625,55.8545455 19.7818182,54.5521011 19.7818182,52.9454545 L19.7818182,52.9454545 L19.7818182,52.9454545 C19.7818182,51.338808 21.0842625,50.0363636 22.6909091,50.0363636 L42.4727273,50.0363636 L42.4727273,50.0363636 C44.0793738,50.0363636 45.3818182,51.338808 45.3818182,52.9454545 Z" id="Path"></path>
                    <path d="M36.7797371,30.2545455 L37.2363636,30.2545455 L37.2363636,30.2545455 C38.5216809,30.2545455 39.5636364,31.2965009 39.5636364,32.5818182 L39.5636364,32.5818182 C39.5636364,33.7563176 38.6936066,34.7276106 37.5628782,34.8863663 C41.4974281,36.7927177 44.2181818,40.8874016 44.2181818,45.6311688 C44.2181818,46.7549348 44.0654976,47.8422752 43.7801627,48.8727273 L21.3834737,48.8727273 C21.0981388,47.8422752 20.9454545,46.7549348 20.9454545,45.6311688 C20.9454545,40.8874016 23.6662083,36.7927177 27.6007582,34.8863663 C26.4700297,34.7276106 25.6,33.7563176 25.6,32.5818182 C25.6,31.2965009 26.6419555,30.2545455 27.9272727,30.2545455 L28.3838992,30.2545455 C26.0184229,28.8292106 24.4363636,26.2357238 24.4363636,23.2727273 C24.4363636,18.7741169 28.0832079,15.1272727 32.5818182,15.1272727 C37.0804285,15.1272727 40.7272727,18.7741169 40.7272727,23.2727273 C40.7272727,26.2357238 39.1452135,28.8292106 36.7797371,30.2545455 Z" id="Combined-Shape"></path>
                </g>
                <g id="piece_pawn_w" opacity="0.78" transform="translate(697.000000, 661.000000) scale(1, -1) rotate(-264.000000) translate(-697.000000, -661.000000) translate(673.000000, 637.000000)">
                    <path d="M34.0363636,39.7090909 L34.0363636,39.7090909 L34.0363636,39.7090909 C34.0363636,40.9140758 33.0595304,41.8909091 31.8545455,41.8909091 L17.0181818,41.8909091 L17.0181818,41.8909091 C15.8131969,41.8909091 14.8363636,40.9140758 14.8363636,39.7090909 L14.8363636,39.7090909 L14.8363636,39.7090909 C14.8363636,38.504106 15.8131969,37.5272727 17.0181818,37.5272727 L31.8545455,37.5272727 L31.8545455,37.5272727 C33.0595304,37.5272727 34.0363636,38.504106 34.0363636,39.7090909 Z" id="Path"></path>
                    <path d="M27.5848029,22.6909091 L27.9272727,22.6909091 L27.9272727,22.6909091 C28.8912607,22.6909091 29.6727273,23.4723757 29.6727273,24.4363636 L29.6727273,24.4363636 C29.6727273,25.3172382 29.020205,26.045708 28.1721586,26.1647747 C31.1230711,27.5945383 33.1636364,30.6655512 33.1636364,34.2233766 C33.1636364,35.0662011 33.0491232,35.8817064 32.835122,36.6545455 L16.0376053,36.6545455 C15.8236041,35.8817064 15.7090909,35.0662011 15.7090909,34.2233766 C15.7090909,30.6655512 17.7496562,27.5945383 20.7005686,26.1647747 C19.8525223,26.045708 19.2,25.3172382 19.2,24.4363636 L19.2,24.4363636 L19.2,24.4363636 C19.2,23.4723757 19.9814666,22.6909091 20.9454545,22.6909091 L21.2879244,22.6909091 C19.5138172,21.6219079 18.3272727,19.6767929 18.3272727,17.4545455 C18.3272727,14.0805877 21.0624059,11.3454545 24.4363636,11.3454545 C27.8103214,11.3454545 30.5454545,14.0805877 30.5454545,17.4545455 C30.5454545,19.6767929 29.3589101,21.6219079 27.5848029,22.6909091 Z" id="Combined-Shape"></path>
                </g>
                <g id="piece_pawn_w" opacity="0.8" transform="translate(596.000000, 107.000000) scale(-1, 1) rotate(-258.000000) translate(-596.000000, -107.000000) translate(573.000000, 84.000000)">
                    <path d="M32.6181818,38.0545455 L32.6181818,38.0545455 L32.6181818,38.0545455 C32.6181818,39.2093227 31.6820499,40.1454545 30.5272727,40.1454545 L16.3090909,40.1454545 L16.3090909,40.1454545 C15.1543137,40.1454545 14.2181818,39.2093227 14.2181818,38.0545455 L14.2181818,38.0545455 L14.2181818,38.0545455 C14.2181818,36.8997683 15.1543137,35.9636364 16.3090909,35.9636364 L30.5272727,35.9636364 L30.5272727,35.9636364 C31.6820499,35.9636364 32.6181818,36.8997683 32.6181818,38.0545455 Z" id="Path"></path>
                    <path d="M26.4354361,21.7454545 L26.7636364,21.7454545 L26.7636364,21.7454545 C27.6874581,21.7454545 28.4363636,22.4943601 28.4363636,23.4181818 C28.4363636,24.2623533 27.8110298,24.9604702 26.9983187,25.0745758 C29.8262765,26.4447658 31.7818182,29.3878199 31.7818182,32.7974026 C31.7818182,33.6051094 31.6720764,34.3866353 31.4669919,35.1272727 L15.3693717,35.1272727 C15.1642873,34.3866353 15.0545455,33.6051094 15.0545455,32.7974026 C15.0545455,29.3878199 17.0100872,26.4447658 19.838045,25.0745758 C19.0253339,24.9604702 18.4,24.2623533 18.4,23.4181818 C18.4,22.4943601 19.1489055,21.7454545 20.0727273,21.7454545 L20.4009276,21.7454545 C18.7007415,20.7209951 17.5636364,18.8569265 17.5636364,16.7272727 C17.5636364,13.4938966 20.1848056,10.8727273 23.4181818,10.8727273 C26.651558,10.8727273 29.2727273,13.4938966 29.2727273,16.7272727 C29.2727273,18.8569265 28.1356222,20.7209951 26.4354361,21.7454545 Z" id="Combined-Shape"></path>
                </g>
                <g id="piece_pawn_w" opacity="0.7" transform="translate(403.000000, 380.000000) rotate(-342.000000) translate(-403.000000, -380.000000) translate(374.000000, 351.000000)">
                    <path d="M41.1272727,47.9818182 L41.1272727,47.9818182 L41.1272727,47.9818182 C41.1272727,49.4378416 39.9469325,50.6181818 38.4909091,50.6181818 L20.5636364,50.6181818 L20.5636364,50.6181818 C19.1076129,50.6181818 17.9272727,49.4378416 17.9272727,47.9818182 L17.9272727,47.9818182 L17.9272727,47.9818182 C17.9272727,46.5257948 19.1076129,45.3454545 20.5636364,45.3454545 L38.4909091,45.3454545 L38.4909091,45.3454545 C39.9469325,45.3454545 41.1272727,46.5257948 41.1272727,47.9818182 Z" id="Path"></path>
                    <path d="M33.3316368,27.4181818 L33.7454545,27.4181818 L33.7454545,27.4181818 C34.9102733,27.4181818 35.8545455,28.362454 35.8545455,29.5272727 C35.8545455,30.5916628 35.066081,31.4718971 34.0413583,31.6157695 C37.6070442,33.3434004 40.0727273,37.0542077 40.0727273,41.3532468 C40.0727273,42.3716596 39.9343572,43.3570619 39.6757724,44.2909091 L19.378773,44.2909091 C19.1201883,43.3570619 18.9818182,42.3716596 18.9818182,41.3532468 C18.9818182,37.0542077 21.4475012,33.3434004 25.0131871,31.6157695 C23.9884645,31.4718971 23.2,30.5916628 23.2,29.5272727 C23.2,28.362454 24.1442722,27.4181818 25.3090909,27.4181818 L25.7229087,27.4181818 C23.5791957,26.1264721 22.1454545,23.7761247 22.1454545,21.0909091 C22.1454545,17.0140435 25.4504071,13.7090909 29.5272727,13.7090909 C33.6041383,13.7090909 36.9090909,17.0140435 36.9090909,21.0909091 C36.9090909,23.7761247 35.4753497,26.1264721 33.3316368,27.4181818 Z" id="Combined-Shape"></path>
                </g>
                <g id="piece_pawn_w" opacity="0.92" transform="translate(289.000000, 579.000000) scale(-1, -1) rotate(-84.000000) translate(-289.000000, -579.000000) translate(264.000000, 554.000000)">
                    <path d="M35.4545455,41.3636364 L35.4545455,41.3636364 L35.4545455,41.3636364 C35.4545455,42.618829 34.4370108,43.6363636 33.1818182,43.6363636 L17.7272727,43.6363636 L17.7272727,43.6363636 C16.4720801,43.6363636 15.4545455,42.618829 15.4545455,41.3636364 L15.4545455,41.3636364 L15.4545455,41.3636364 C15.4545455,40.1084438 16.4720801,39.0909091 17.7272727,39.0909091 L33.1818182,39.0909091 L33.1818182,39.0909091 C34.4370108,39.0909091 35.4545455,40.1084438 35.4545455,41.3636364 Z" id="Path"></path>
                    <path d="M28.7341696,23.6363636 L29.0909091,23.6363636 C30.0950632,23.6363636 30.9090909,24.4503914 30.9090909,25.4545455 L30.9090909,25.4545455 C30.9090909,26.3721231 30.2293802,27.1309458 29.3459986,27.2549737 C32.4198657,28.7443107 34.5454545,31.9432825 34.5454545,35.6493506 C34.5454545,36.5272928 34.42617,37.3767775 34.2032521,38.1818182 L16.7058388,38.1818182 C16.4829209,37.3767775 16.3636364,36.5272928 16.3636364,35.6493506 C16.3636364,31.9432825 18.4892252,28.7443107 21.5630923,27.2549737 C20.6797107,27.1309458 20,26.3721231 20,25.4545455 C20,24.4503914 20.8140277,23.6363636 21.8181818,23.6363636 L22.1749213,23.6363636 C20.3268929,22.5228208 19.0909091,20.4966592 19.0909091,18.1818182 C19.0909091,14.6672789 21.9400061,11.8181818 25.4545455,11.8181818 C28.9690848,11.8181818 31.8181818,14.6672789 31.8181818,18.1818182 C31.8181818,20.4966592 30.582198,22.5228208 28.7341696,23.6363636 Z" id="Combined-Shape"></path>
                </g>
                <g id="piece_pawn_w" opacity="0.84" transform="translate(337.000000, 217.000000) rotate(-114.000000) translate(-337.000000, -217.000000) translate(312.000000, 192.000000)">
                    <path d="M35.4545455,41.3636364 L35.4545455,41.3636364 L35.4545455,41.3636364 C35.4545455,42.618829 34.4370108,43.6363636 33.1818182,43.6363636 L17.7272727,43.6363636 L17.7272727,43.6363636 C16.4720801,43.6363636 15.4545455,42.618829 15.4545455,41.3636364 L15.4545455,41.3636364 L15.4545455,41.3636364 C15.4545455,40.1084438 16.4720801,39.0909091 17.7272727,39.0909091 L33.1818182,39.0909091 L33.1818182,39.0909091 C34.4370108,39.0909091 35.4545455,40.1084438 35.4545455,41.3636364 Z" id="Path"></path>
                    <path d="M28.7341696,23.6363636 L29.0909091,23.6363636 C30.0950632,23.6363636 30.9090909,24.4503914 30.9090909,25.4545455 L30.9090909,25.4545455 C30.9090909,26.3721231 30.2293802,27.1309458 29.3459986,27.2549737 C32.4198657,28.7443107 34.5454545,31.9432825 34.5454545,35.6493506 C34.5454545,36.5272928 34.42617,37.3767775 34.2032521,38.1818182 L16.7058388,38.1818182 C16.4829209,37.3767775 16.3636364,36.5272928 16.3636364,35.6493506 C16.3636364,31.9432825 18.4892252,28.7443107 21.5630923,27.2549737 C20.6797107,27.1309458 20,26.3721231 20,25.4545455 C20,24.4503914 20.8140277,23.6363636 21.8181818,23.6363636 L22.1749213,23.6363636 C20.3268929,22.5228208 19.0909091,20.4966592 19.0909091,18.1818182 C19.0909091,14.6672789 21.9400061,11.8181818 25.4545455,11.8181818 C28.9690848,11.8181818 31.8181818,14.6672789 31.8181818,18.1818182 C31.8181818,20.4966592 30.582198,22.5228208 28.7341696,23.6363636 Z" id="Combined-Shape"></path>
                </g>
                <g id="piece_pawn_w" opacity="0.87" transform="translate(152.500000, 260.500000) rotate(-119.000000) translate(-152.500000, -260.500000) translate(129.000000, 237.000000)">
                    <path d="M33.3272727,38.8818182 L33.3272727,38.8818182 L33.3272727,38.8818182 C33.3272727,40.0616992 32.3707901,41.0181818 31.1909091,41.0181818 L16.6636364,41.0181818 L16.6636364,41.0181818 C15.4837553,41.0181818 14.5272727,40.0616992 14.5272727,38.8818182 L14.5272727,38.8818182 L14.5272727,38.8818182 C14.5272727,37.7019371 15.4837553,36.7454545 16.6636364,36.7454545 L31.1909091,36.7454545 L31.1909091,36.7454545 C32.3707901,36.7454545 33.3272727,37.7019371 33.3272727,38.8818182 Z" id="Path"></path>
                    <path d="M27.0101195,22.2181818 L27.3454545,22.2181818 C28.2893594,22.2181818 29.0545455,22.9833679 29.0545455,23.9272727 C29.0545455,24.7897957 28.4156174,25.5030891 27.5852387,25.6196753 C30.4746738,27.019652 32.4727273,30.0266856 32.4727273,33.5103896 C32.4727273,34.3356552 32.3605998,35.1341708 32.151057,35.8909091 L15.7034885,35.8909091 C15.4939457,35.1341708 15.3818182,34.3356552 15.3818182,33.5103896 C15.3818182,30.0266856 17.3798717,27.019652 20.2693068,25.6196753 C19.4389281,25.5030891 18.8,24.7897957 18.8,23.9272727 C18.8,22.9833679 19.5651861,22.2181818 20.5090909,22.2181818 L20.844426,22.2181818 C19.1072793,21.1714515 17.9454545,19.2668597 17.9454545,17.0909091 C17.9454545,13.7872421 20.6236058,11.1090909 23.9272727,11.1090909 C27.2309397,11.1090909 29.9090909,13.7872421 29.9090909,17.0909091 C29.9090909,19.2668597 28.7472661,21.1714515 27.0101195,22.2181818 Z" id="Combined-Shape"></path>
                </g>
                <g id="piece_pawn_w" opacity="0.9" transform="translate(39.500000, 655.500000) scale(1, -1) rotate(-1.000000) translate(-39.500000, -655.500000) translate(10.000000, 626.000000)">
                    <path d="M41.8363636,48.8090909 L41.8363636,48.8090909 L41.8363636,48.8090909 C41.8363636,50.2902182 40.6356727,51.4909091 39.1545455,51.4909091 L20.9181818,51.4909091 L20.9181818,51.4909091 C19.4370545,51.4909091 18.2363636,50.2902182 18.2363636,48.8090909 L18.2363636,48.8090909 L18.2363636,48.8090909 C18.2363636,47.3279636 19.4370545,46.1272727 20.9181818,46.1272727 L39.1545455,46.1272727 L39.1545455,46.1272727 C40.6356727,46.1272727 41.8363636,47.3279636 41.8363636,48.8090909 Z" id="Path"></path>
                    <path d="M33.9063202,27.8909091 L34.3272727,27.8909091 L34.3272727,27.8909091 C35.5121746,27.8909091 36.4727273,28.8514618 36.4727273,30.0363636 C36.4727273,31.1191053 35.6706686,32.0145161 34.6282783,32.160869 C38.2554415,33.9182866 40.7636364,37.6930734 40.7636364,42.0662338 C40.7636364,43.1022055 40.6228806,44.1045974 40.3598375,45.0545455 L19.7128898,45.0545455 C19.4498467,44.1045974 19.3090909,43.1022055 19.3090909,42.0662338 C19.3090909,37.6930734 21.8172857,33.9182866 25.444449,32.160869 C24.4020587,32.0145161 23.6,31.1191053 23.6,30.0363636 C23.6,28.8514618 24.5605527,27.8909091 25.7454545,27.8909091 L26.1664071,27.8909091 C23.9857336,26.5769285 22.5272727,24.1860579 22.5272727,21.4545455 C22.5272727,17.3073891 25.8892072,13.9454545 30.0363636,13.9454545 C34.18352,13.9454545 37.5454545,17.3073891 37.5454545,21.4545455 C37.5454545,24.1860579 36.0869937,26.5769285 33.9063202,27.8909091 Z" id="Combined-Shape"></path>
                </g>
                <g id="piece_pawn_w" opacity="0.72" transform="translate(54.500000, 241.500000) scale(-1, -1) rotate(-50.000000) translate(-54.500000, -241.500000) translate(25.000000, 212.000000)">
                    <path d="M41.8363636,48.8090909 L41.8363636,48.8090909 L41.8363636,48.8090909 C41.8363636,50.2902182 40.6356727,51.4909091 39.1545455,51.4909091 L20.9181818,51.4909091 L20.9181818,51.4909091 C19.4370545,51.4909091 18.2363636,50.2902182 18.2363636,48.8090909 L18.2363636,48.8090909 L18.2363636,48.8090909 C18.2363636,47.3279636 19.4370545,46.1272727 20.9181818,46.1272727 L39.1545455,46.1272727 L39.1545455,46.1272727 C40.6356727,46.1272727 41.8363636,47.3279636 41.8363636,48.8090909 Z" id="Path"></path>
                    <path d="M33.9063202,27.8909091 L34.3272727,27.8909091 L34.3272727,27.8909091 C35.5121746,27.8909091 36.4727273,28.8514618 36.4727273,30.0363636 C36.4727273,31.1191053 35.6706686,32.0145161 34.6282783,32.160869 C38.2554415,33.9182866 40.7636364,37.6930734 40.7636364,42.0662338 C40.7636364,43.1022055 40.6228806,44.1045974 40.3598375,45.0545455 L19.7128898,45.0545455 C19.4498467,44.1045974 19.3090909,43.1022055 19.3090909,42.0662338 C19.3090909,37.6930734 21.8172857,33.9182866 25.444449,32.160869 C24.4020587,32.0145161 23.6,31.1191053 23.6,30.0363636 C23.6,28.8514618 24.5605527,27.8909091 25.7454545,27.8909091 L26.1664071,27.8909091 C23.9857336,26.5769285 22.5272727,24.1860579 22.5272727,21.4545455 C22.5272727,17.3073891 25.8892072,13.9454545 30.0363636,13.9454545 C34.18352,13.9454545 37.5454545,17.3073891 37.5454545,21.4545455 C37.5454545,24.1860579 36.0869937,26.5769285 33.9063202,27.8909091 Z" id="Combined-Shape"></path>
                </g>
            </g>
        </g>
    </g>
</svg>